2017-01-30 01:38:55: Execute failed: (1062) Duplicate entry '964441755' for key 'PRIMARY'

2017-02-01 12:10:07: Execute failed: (1062) Duplicate entry '964441755' for key 'PRIMARY'

2017-02-01 19:35:12: Array

2017-02-01 19:35:12: array(37) {
  ["id"]=>
  int(1)
  ["tipo"]=>
  int(0)
  ["empresa"]=>
  string(4) "SPIC"
  ["sigla"]=>
  NULL
  ["estrutura1"]=>
  NULL
  ["estrutura2"]=>
  NULL
  ["estrutura3"]=>
  NULL
  ["estrutura4"]=>
  NULL
  ["estrutura5"]=>
  NULL
  ["n_colaborador"]=>
  NULL
  ["nome_cod80"]=>
  NULL
  ["nome"]=>
  string(6) "João "
  ["email"]=>
  string(12) "joao@spic.pt"
  ["localidade"]=>
  string(0) ""
  ["aloja_24"]=>
  int(1)
  ["aloja_25"]=>
  int(1)
  ["observacoes"]=>
  NULL
  ["flag_registo"]=>
  int(0)
  ["data_registo"]=>
  string(19) "2017-02-01 19:34:22"
  ["flag_registo_app"]=>
  int(0)
  ["data_registo_app"]=>
  NULL
  ["device_app"]=>
  NULL
  ["flag_checkin"]=>
  int(0)
  ["data_checkin"]=>
  NULL
  ["mesa"]=>
  NULL
  ["data_mesa"]=>
  string(19) "0000-00-00 00:00:00"
  ["n_telemovel"]=>
  NULL
  ["cod_acesso"]=>
  string(9) "693165792"
  ["restricoes_ali"]=>
  string(2) "23"
  ["rest_ali_outras"]=>
  string(5) "carne"
  ["transfer"]=>
  int(1)
  ["ponto_partida"]=>
  string(9) "Grândola"
  ["alojamento"]=>
  int(2)
  ["cc"]=>
  string(8) "12345678"
  ["cc_validade"]=>
  string(10) "12/03/2020"
  ["semjantar"]=>
  int(0)
  ["presenca_evento"]=>
  int(1)
}


2017-02-01 19:35:12: dados

2017-02-01 19:35:17: Array

2017-02-01 19:35:17: array(37) {
  ["id"]=>
  int(1)
  ["tipo"]=>
  int(0)
  ["empresa"]=>
  string(4) "SPIC"
  ["sigla"]=>
  NULL
  ["estrutura1"]=>
  NULL
  ["estrutura2"]=>
  NULL
  ["estrutura3"]=>
  NULL
  ["estrutura4"]=>
  NULL
  ["estrutura5"]=>
  NULL
  ["n_colaborador"]=>
  NULL
  ["nome_cod80"]=>
  NULL
  ["nome"]=>
  string(6) "João "
  ["email"]=>
  string(12) "joao@spic.pt"
  ["localidade"]=>
  string(0) ""
  ["aloja_24"]=>
  int(1)
  ["aloja_25"]=>
  int(1)
  ["observacoes"]=>
  NULL
  ["flag_registo"]=>
  int(0)
  ["data_registo"]=>
  string(19) "2017-02-01 19:34:22"
  ["flag_registo_app"]=>
  int(0)
  ["data_registo_app"]=>
  NULL
  ["device_app"]=>
  NULL
  ["flag_checkin"]=>
  int(0)
  ["data_checkin"]=>
  NULL
  ["mesa"]=>
  NULL
  ["data_mesa"]=>
  string(19) "0000-00-00 00:00:00"
  ["n_telemovel"]=>
  NULL
  ["cod_acesso"]=>
  string(9) "693165792"
  ["restricoes_ali"]=>
  string(2) "23"
  ["rest_ali_outras"]=>
  string(5) "carne"
  ["transfer"]=>
  int(1)
  ["ponto_partida"]=>
  string(9) "Grândola"
  ["alojamento"]=>
  int(2)
  ["cc"]=>
  string(8) "12345678"
  ["cc_validade"]=>
  string(10) "12/03/2020"
  ["semjantar"]=>
  int(0)
  ["presenca_evento"]=>
  int(1)
}


2017-02-01 19:35:17: dados

2017-02-01 19:35:18: Array

2017-02-01 19:35:18: array(37) {
  ["id"]=>
  int(1)
  ["tipo"]=>
  int(0)
  ["empresa"]=>
  string(4) "SPIC"
  ["sigla"]=>
  NULL
  ["estrutura1"]=>
  NULL
  ["estrutura2"]=>
  NULL
  ["estrutura3"]=>
  NULL
  ["estrutura4"]=>
  NULL
  ["estrutura5"]=>
  NULL
  ["n_colaborador"]=>
  NULL
  ["nome_cod80"]=>
  NULL
  ["nome"]=>
  string(6) "João "
  ["email"]=>
  string(12) "joao@spic.pt"
  ["localidade"]=>
  string(0) ""
  ["aloja_24"]=>
  int(1)
  ["aloja_25"]=>
  int(1)
  ["observacoes"]=>
  NULL
  ["flag_registo"]=>
  int(0)
  ["data_registo"]=>
  string(19) "2017-02-01 19:34:22"
  ["flag_registo_app"]=>
  int(0)
  ["data_registo_app"]=>
  NULL
  ["device_app"]=>
  NULL
  ["flag_checkin"]=>
  int(0)
  ["data_checkin"]=>
  NULL
  ["mesa"]=>
  NULL
  ["data_mesa"]=>
  string(19) "0000-00-00 00:00:00"
  ["n_telemovel"]=>
  NULL
  ["cod_acesso"]=>
  string(9) "693165792"
  ["restricoes_ali"]=>
  string(2) "23"
  ["rest_ali_outras"]=>
  string(5) "carne"
  ["transfer"]=>
  int(1)
  ["ponto_partida"]=>
  string(9) "Grândola"
  ["alojamento"]=>
  int(2)
  ["cc"]=>
  string(8) "12345678"
  ["cc_validade"]=>
  string(10) "12/03/2020"
  ["semjantar"]=>
  int(0)
  ["presenca_evento"]=>
  int(1)
}


2017-02-01 19:35:18: dados

2017-02-01 19:35:19: Array

2017-02-01 19:35:19: array(37) {
  ["id"]=>
  int(1)
  ["tipo"]=>
  int(0)
  ["empresa"]=>
  string(4) "SPIC"
  ["sigla"]=>
  NULL
  ["estrutura1"]=>
  NULL
  ["estrutura2"]=>
  NULL
  ["estrutura3"]=>
  NULL
  ["estrutura4"]=>
  NULL
  ["estrutura5"]=>
  NULL
  ["n_colaborador"]=>
  NULL
  ["nome_cod80"]=>
  NULL
  ["nome"]=>
  string(6) "João "
  ["email"]=>
  string(12) "joao@spic.pt"
  ["localidade"]=>
  string(0) ""
  ["aloja_24"]=>
  int(1)
  ["aloja_25"]=>
  int(1)
  ["observacoes"]=>
  NULL
  ["flag_registo"]=>
  int(0)
  ["data_registo"]=>
  string(19) "2017-02-01 19:34:22"
  ["flag_registo_app"]=>
  int(0)
  ["data_registo_app"]=>
  NULL
  ["device_app"]=>
  NULL
  ["flag_checkin"]=>
  int(0)
  ["data_checkin"]=>
  NULL
  ["mesa"]=>
  NULL
  ["data_mesa"]=>
  string(19) "0000-00-00 00:00:00"
  ["n_telemovel"]=>
  NULL
  ["cod_acesso"]=>
  string(9) "693165792"
  ["restricoes_ali"]=>
  string(2) "23"
  ["rest_ali_outras"]=>
  string(5) "carne"
  ["transfer"]=>
  int(1)
  ["ponto_partida"]=>
  string(9) "Grândola"
  ["alojamento"]=>
  int(2)
  ["cc"]=>
  string(8) "12345678"
  ["cc_validade"]=>
  string(10) "12/03/2020"
  ["semjantar"]=>
  int(0)
  ["presenca_evento"]=>
  int(1)
}


2017-02-01 19:35:19: dados

2017-02-01 19:37:08: Array

2017-02-01 19:37:08: array(37) {
  ["id"]=>
  int(1)
  ["tipo"]=>
  int(0)
  ["empresa"]=>
  string(4) "SPIC"
  ["sigla"]=>
  NULL
  ["estrutura1"]=>
  NULL
  ["estrutura2"]=>
  NULL
  ["estrutura3"]=>
  NULL
  ["estrutura4"]=>
  NULL
  ["estrutura5"]=>
  NULL
  ["n_colaborador"]=>
  NULL
  ["nome_cod80"]=>
  NULL
  ["nome"]=>
  string(6) "João "
  ["email"]=>
  string(12) "joao@spic.pt"
  ["localidade"]=>
  string(0) ""
  ["aloja_24"]=>
  int(1)
  ["aloja_25"]=>
  int(1)
  ["observacoes"]=>
  NULL
  ["flag_registo"]=>
  int(0)
  ["data_registo"]=>
  string(19) "2017-02-01 19:35:20"
  ["flag_registo_app"]=>
  int(0)
  ["data_registo_app"]=>
  NULL
  ["device_app"]=>
  NULL
  ["flag_checkin"]=>
  int(0)
  ["data_checkin"]=>
  NULL
  ["mesa"]=>
  NULL
  ["data_mesa"]=>
  string(19) "0000-00-00 00:00:00"
  ["n_telemovel"]=>
  NULL
  ["cod_acesso"]=>
  string(9) "326030698"
  ["restricoes_ali"]=>
  string(2) "23"
  ["rest_ali_outras"]=>
  string(5) "carne"
  ["transfer"]=>
  int(1)
  ["ponto_partida"]=>
  string(9) "Grândola"
  ["alojamento"]=>
  int(2)
  ["cc"]=>
  string(8) "12345678"
  ["cc_validade"]=>
  string(22) "12/03/2020dsadsadasdas"
  ["semjantar"]=>
  int(0)
  ["presenca_evento"]=>
  int(1)
}


2017-02-01 19:37:08: dados

2017-02-01 19:37:11: Array

2017-02-01 19:37:11: array(37) {
  ["id"]=>
  int(1)
  ["tipo"]=>
  int(0)
  ["empresa"]=>
  string(4) "SPIC"
  ["sigla"]=>
  NULL
  ["estrutura1"]=>
  NULL
  ["estrutura2"]=>
  NULL
  ["estrutura3"]=>
  NULL
  ["estrutura4"]=>
  NULL
  ["estrutura5"]=>
  NULL
  ["n_colaborador"]=>
  NULL
  ["nome_cod80"]=>
  NULL
  ["nome"]=>
  string(6) "João "
  ["email"]=>
  string(12) "joao@spic.pt"
  ["localidade"]=>
  string(0) ""
  ["aloja_24"]=>
  int(1)
  ["aloja_25"]=>
  int(1)
  ["observacoes"]=>
  NULL
  ["flag_registo"]=>
  int(0)
  ["data_registo"]=>
  string(19) "2017-02-01 19:35:20"
  ["flag_registo_app"]=>
  int(0)
  ["data_registo_app"]=>
  NULL
  ["device_app"]=>
  NULL
  ["flag_checkin"]=>
  int(0)
  ["data_checkin"]=>
  NULL
  ["mesa"]=>
  NULL
  ["data_mesa"]=>
  string(19) "0000-00-00 00:00:00"
  ["n_telemovel"]=>
  NULL
  ["cod_acesso"]=>
  string(9) "326030698"
  ["restricoes_ali"]=>
  string(2) "23"
  ["rest_ali_outras"]=>
  string(5) "carne"
  ["transfer"]=>
  int(1)
  ["ponto_partida"]=>
  string(9) "Grândola"
  ["alojamento"]=>
  int(2)
  ["cc"]=>
  string(8) "12345678"
  ["cc_validade"]=>
  string(22) "12/03/2020dsadsadasdas"
  ["semjantar"]=>
  int(0)
  ["presenca_evento"]=>
  int(1)
}


2017-02-01 19:37:11: dados

2017-02-01 19:37:12: Array

2017-02-01 19:37:12: array(37) {
  ["id"]=>
  int(1)
  ["tipo"]=>
  int(0)
  ["empresa"]=>
  string(4) "SPIC"
  ["sigla"]=>
  NULL
  ["estrutura1"]=>
  NULL
  ["estrutura2"]=>
  NULL
  ["estrutura3"]=>
  NULL
  ["estrutura4"]=>
  NULL
  ["estrutura5"]=>
  NULL
  ["n_colaborador"]=>
  NULL
  ["nome_cod80"]=>
  NULL
  ["nome"]=>
  string(6) "João "
  ["email"]=>
  string(12) "joao@spic.pt"
  ["localidade"]=>
  string(0) ""
  ["aloja_24"]=>
  int(1)
  ["aloja_25"]=>
  int(1)
  ["observacoes"]=>
  NULL
  ["flag_registo"]=>
  int(0)
  ["data_registo"]=>
  string(19) "2017-02-01 19:35:20"
  ["flag_registo_app"]=>
  int(0)
  ["data_registo_app"]=>
  NULL
  ["device_app"]=>
  NULL
  ["flag_checkin"]=>
  int(0)
  ["data_checkin"]=>
  NULL
  ["mesa"]=>
  NULL
  ["data_mesa"]=>
  string(19) "0000-00-00 00:00:00"
  ["n_telemovel"]=>
  NULL
  ["cod_acesso"]=>
  string(9) "326030698"
  ["restricoes_ali"]=>
  string(2) "23"
  ["rest_ali_outras"]=>
  string(5) "carne"
  ["transfer"]=>
  int(1)
  ["ponto_partida"]=>
  string(9) "Grândola"
  ["alojamento"]=>
  int(2)
  ["cc"]=>
  string(8) "12345678"
  ["cc_validade"]=>
  string(22) "12/03/2020dsadsadasdas"
  ["semjantar"]=>
  int(0)
  ["presenca_evento"]=>
  int(1)
}


2017-02-01 19:37:12: dados

2017-02-01 19:37:13: Array

2017-02-01 19:37:13: array(37) {
  ["id"]=>
  int(1)
  ["tipo"]=>
  int(0)
  ["empresa"]=>
  string(4) "SPIC"
  ["sigla"]=>
  NULL
  ["estrutura1"]=>
  NULL
  ["estrutura2"]=>
  NULL
  ["estrutura3"]=>
  NULL
  ["estrutura4"]=>
  NULL
  ["estrutura5"]=>
  NULL
  ["n_colaborador"]=>
  NULL
  ["nome_cod80"]=>
  NULL
  ["nome"]=>
  string(6) "João "
  ["email"]=>
  string(12) "joao@spic.pt"
  ["localidade"]=>
  string(0) ""
  ["aloja_24"]=>
  int(1)
  ["aloja_25"]=>
  int(1)
  ["observacoes"]=>
  NULL
  ["flag_registo"]=>
  int(0)
  ["data_registo"]=>
  string(19) "2017-02-01 19:35:20"
  ["flag_registo_app"]=>
  int(0)
  ["data_registo_app"]=>
  NULL
  ["device_app"]=>
  NULL
  ["flag_checkin"]=>
  int(0)
  ["data_checkin"]=>
  NULL
  ["mesa"]=>
  NULL
  ["data_mesa"]=>
  string(19) "0000-00-00 00:00:00"
  ["n_telemovel"]=>
  NULL
  ["cod_acesso"]=>
  string(9) "326030698"
  ["restricoes_ali"]=>
  string(2) "23"
  ["rest_ali_outras"]=>
  string(5) "carne"
  ["transfer"]=>
  int(1)
  ["ponto_partida"]=>
  string(9) "Grândola"
  ["alojamento"]=>
  int(2)
  ["cc"]=>
  string(8) "12345678"
  ["cc_validade"]=>
  string(22) "12/03/2020dsadsadasdas"
  ["semjantar"]=>
  int(0)
  ["presenca_evento"]=>
  int(1)
}


2017-02-01 19:37:13: dados

2017-02-01 19:37:19: Array

2017-02-01 19:37:19: array(37) {
  ["id"]=>
  int(1)
  ["tipo"]=>
  int(0)
  ["empresa"]=>
  string(4) "SPIC"
  ["sigla"]=>
  NULL
  ["estrutura1"]=>
  NULL
  ["estrutura2"]=>
  NULL
  ["estrutura3"]=>
  NULL
  ["estrutura4"]=>
  NULL
  ["estrutura5"]=>
  NULL
  ["n_colaborador"]=>
  NULL
  ["nome_cod80"]=>
  NULL
  ["nome"]=>
  string(6) "João "
  ["email"]=>
  string(12) "joao@spic.pt"
  ["localidade"]=>
  string(0) ""
  ["aloja_24"]=>
  int(1)
  ["aloja_25"]=>
  int(1)
  ["observacoes"]=>
  NULL
  ["flag_registo"]=>
  int(0)
  ["data_registo"]=>
  string(19) "2017-02-01 19:35:20"
  ["flag_registo_app"]=>
  int(0)
  ["data_registo_app"]=>
  NULL
  ["device_app"]=>
  NULL
  ["flag_checkin"]=>
  int(0)
  ["data_checkin"]=>
  NULL
  ["mesa"]=>
  NULL
  ["data_mesa"]=>
  string(19) "0000-00-00 00:00:00"
  ["n_telemovel"]=>
  NULL
  ["cod_acesso"]=>
  string(9) "326030698"
  ["restricoes_ali"]=>
  string(2) "23"
  ["rest_ali_outras"]=>
  string(5) "carne"
  ["transfer"]=>
  int(1)
  ["ponto_partida"]=>
  string(9) "Grândola"
  ["alojamento"]=>
  int(2)
  ["cc"]=>
  string(8) "12345678"
  ["cc_validade"]=>
  string(22) "12/03/2020dsadsadasdas"
  ["semjantar"]=>
  int(0)
  ["presenca_evento"]=>
  int(1)
}


2017-02-01 19:37:19: dados

2017-02-01 19:37:32: Array

2017-02-01 19:37:32: array(37) {
  ["id"]=>
  int(1)
  ["tipo"]=>
  int(0)
  ["empresa"]=>
  string(4) "SPIC"
  ["sigla"]=>
  NULL
  ["estrutura1"]=>
  NULL
  ["estrutura2"]=>
  NULL
  ["estrutura3"]=>
  NULL
  ["estrutura4"]=>
  NULL
  ["estrutura5"]=>
  NULL
  ["n_colaborador"]=>
  NULL
  ["nome_cod80"]=>
  NULL
  ["nome"]=>
  string(6) "João "
  ["email"]=>
  string(12) "joao@spic.pt"
  ["localidade"]=>
  string(0) ""
  ["aloja_24"]=>
  int(1)
  ["aloja_25"]=>
  int(1)
  ["observacoes"]=>
  NULL
  ["flag_registo"]=>
  int(0)
  ["data_registo"]=>
  string(19) "2017-02-01 19:35:20"
  ["flag_registo_app"]=>
  int(0)
  ["data_registo_app"]=>
  NULL
  ["device_app"]=>
  NULL
  ["flag_checkin"]=>
  int(0)
  ["data_checkin"]=>
  NULL
  ["mesa"]=>
  NULL
  ["data_mesa"]=>
  string(19) "0000-00-00 00:00:00"
  ["n_telemovel"]=>
  NULL
  ["cod_acesso"]=>
  string(9) "326030698"
  ["restricoes_ali"]=>
  string(2) "23"
  ["rest_ali_outras"]=>
  string(5) "carne"
  ["transfer"]=>
  int(1)
  ["ponto_partida"]=>
  string(9) "Grândola"
  ["alojamento"]=>
  int(2)
  ["cc"]=>
  string(8) "12345678"
  ["cc_validade"]=>
  string(22) "12/03/2020dsadsadasdas"
  ["semjantar"]=>
  int(0)
  ["presenca_evento"]=>
  int(1)
}


2017-02-01 19:37:32: dados

2017-02-01 19:37:47: Array

2017-02-01 19:37:47: array(37) {
  ["id"]=>
  int(1)
  ["tipo"]=>
  int(0)
  ["empresa"]=>
  string(4) "SPIC"
  ["sigla"]=>
  NULL
  ["estrutura1"]=>
  NULL
  ["estrutura2"]=>
  NULL
  ["estrutura3"]=>
  NULL
  ["estrutura4"]=>
  NULL
  ["estrutura5"]=>
  NULL
  ["n_colaborador"]=>
  NULL
  ["nome_cod80"]=>
  NULL
  ["nome"]=>
  string(6) "João "
  ["email"]=>
  string(12) "joao@spic.pt"
  ["localidade"]=>
  string(0) ""
  ["aloja_24"]=>
  int(1)
  ["aloja_25"]=>
  int(1)
  ["observacoes"]=>
  NULL
  ["flag_registo"]=>
  int(0)
  ["data_registo"]=>
  string(19) "2017-02-01 19:37:32"
  ["flag_registo_app"]=>
  int(0)
  ["data_registo_app"]=>
  NULL
  ["device_app"]=>
  NULL
  ["flag_checkin"]=>
  int(0)
  ["data_checkin"]=>
  NULL
  ["mesa"]=>
  NULL
  ["data_mesa"]=>
  string(19) "0000-00-00 00:00:00"
  ["n_telemovel"]=>
  NULL
  ["cod_acesso"]=>
  string(9) "771475162"
  ["restricoes_ali"]=>
  string(2) "23"
  ["rest_ali_outras"]=>
  string(5) "carne"
  ["transfer"]=>
  int(1)
  ["ponto_partida"]=>
  string(9) "Grândola"
  ["alojamento"]=>
  int(2)
  ["cc"]=>
  string(8) "12345678"
  ["cc_validade"]=>
  string(10) "12/12/2028"
  ["semjantar"]=>
  int(0)
  ["presenca_evento"]=>
  int(1)
}


2017-02-01 19:37:47: dados

2017-02-01 19:37:58: Array

2017-02-01 19:37:58: array(37) {
  ["id"]=>
  int(1)
  ["tipo"]=>
  int(0)
  ["empresa"]=>
  string(4) "SPIC"
  ["sigla"]=>
  NULL
  ["estrutura1"]=>
  NULL
  ["estrutura2"]=>
  NULL
  ["estrutura3"]=>
  NULL
  ["estrutura4"]=>
  NULL
  ["estrutura5"]=>
  NULL
  ["n_colaborador"]=>
  NULL
  ["nome_cod80"]=>
  NULL
  ["nome"]=>
  string(6) "João "
  ["email"]=>
  string(12) "joao@spic.pt"
  ["localidade"]=>
  string(0) ""
  ["aloja_24"]=>
  int(1)
  ["aloja_25"]=>
  int(1)
  ["observacoes"]=>
  NULL
  ["flag_registo"]=>
  int(0)
  ["data_registo"]=>
  string(19) "2017-02-01 19:37:32"
  ["flag_registo_app"]=>
  int(0)
  ["data_registo_app"]=>
  NULL
  ["device_app"]=>
  NULL
  ["flag_checkin"]=>
  int(0)
  ["data_checkin"]=>
  NULL
  ["mesa"]=>
  NULL
  ["data_mesa"]=>
  string(19) "0000-00-00 00:00:00"
  ["n_telemovel"]=>
  NULL
  ["cod_acesso"]=>
  string(9) "771475162"
  ["restricoes_ali"]=>
  string(2) "23"
  ["rest_ali_outras"]=>
  string(5) "carne"
  ["transfer"]=>
  int(1)
  ["ponto_partida"]=>
  string(9) "Grândola"
  ["alojamento"]=>
  int(2)
  ["cc"]=>
  string(8) "12345678"
  ["cc_validade"]=>
  string(10) "12/12/2028"
  ["semjantar"]=>
  int(0)
  ["presenca_evento"]=>
  int(1)
}


2017-02-01 19:37:58: dados

2017-02-01 19:37:59: Array

2017-02-01 19:37:59: array(37) {
  ["id"]=>
  int(1)
  ["tipo"]=>
  int(0)
  ["empresa"]=>
  string(4) "SPIC"
  ["sigla"]=>
  NULL
  ["estrutura1"]=>
  NULL
  ["estrutura2"]=>
  NULL
  ["estrutura3"]=>
  NULL
  ["estrutura4"]=>
  NULL
  ["estrutura5"]=>
  NULL
  ["n_colaborador"]=>
  NULL
  ["nome_cod80"]=>
  NULL
  ["nome"]=>
  string(6) "João "
  ["email"]=>
  string(12) "joao@spic.pt"
  ["localidade"]=>
  string(0) ""
  ["aloja_24"]=>
  int(1)
  ["aloja_25"]=>
  int(1)
  ["observacoes"]=>
  NULL
  ["flag_registo"]=>
  int(0)
  ["data_registo"]=>
  string(19) "2017-02-01 19:37:32"
  ["flag_registo_app"]=>
  int(0)
  ["data_registo_app"]=>
  NULL
  ["device_app"]=>
  NULL
  ["flag_checkin"]=>
  int(0)
  ["data_checkin"]=>
  NULL
  ["mesa"]=>
  NULL
  ["data_mesa"]=>
  string(19) "0000-00-00 00:00:00"
  ["n_telemovel"]=>
  NULL
  ["cod_acesso"]=>
  string(9) "771475162"
  ["restricoes_ali"]=>
  string(2) "23"
  ["rest_ali_outras"]=>
  string(5) "carne"
  ["transfer"]=>
  int(1)
  ["ponto_partida"]=>
  string(9) "Grândola"
  ["alojamento"]=>
  int(2)
  ["cc"]=>
  string(8) "12345678"
  ["cc_validade"]=>
  string(10) "12/12/2028"
  ["semjantar"]=>
  int(0)
  ["presenca_evento"]=>
  int(1)
}


2017-02-01 19:37:59: dados

2017-02-01 19:38:01: Array

2017-02-01 19:38:01: array(37) {
  ["id"]=>
  int(1)
  ["tipo"]=>
  int(0)
  ["empresa"]=>
  string(4) "SPIC"
  ["sigla"]=>
  NULL
  ["estrutura1"]=>
  NULL
  ["estrutura2"]=>
  NULL
  ["estrutura3"]=>
  NULL
  ["estrutura4"]=>
  NULL
  ["estrutura5"]=>
  NULL
  ["n_colaborador"]=>
  NULL
  ["nome_cod80"]=>
  NULL
  ["nome"]=>
  string(6) "João "
  ["email"]=>
  string(12) "joao@spic.pt"
  ["localidade"]=>
  string(0) ""
  ["aloja_24"]=>
  int(1)
  ["aloja_25"]=>
  int(1)
  ["observacoes"]=>
  NULL
  ["flag_registo"]=>
  int(0)
  ["data_registo"]=>
  string(19) "2017-02-01 19:37:32"
  ["flag_registo_app"]=>
  int(0)
  ["data_registo_app"]=>
  NULL
  ["device_app"]=>
  NULL
  ["flag_checkin"]=>
  int(0)
  ["data_checkin"]=>
  NULL
  ["mesa"]=>
  NULL
  ["data_mesa"]=>
  string(19) "0000-00-00 00:00:00"
  ["n_telemovel"]=>
  NULL
  ["cod_acesso"]=>
  string(9) "771475162"
  ["restricoes_ali"]=>
  string(2) "23"
  ["rest_ali_outras"]=>
  string(5) "carne"
  ["transfer"]=>
  int(1)
  ["ponto_partida"]=>
  string(9) "Grândola"
  ["alojamento"]=>
  int(2)
  ["cc"]=>
  string(8) "12345678"
  ["cc_validade"]=>
  string(10) "12/12/2028"
  ["semjantar"]=>
  int(0)
  ["presenca_evento"]=>
  int(1)
}


2017-02-01 19:38:01: dados

2017-02-01 19:38:11: Array

2017-02-01 19:38:11: array(37) {
  ["id"]=>
  int(1)
  ["tipo"]=>
  int(0)
  ["empresa"]=>
  string(4) "SPIC"
  ["sigla"]=>
  NULL
  ["estrutura1"]=>
  NULL
  ["estrutura2"]=>
  NULL
  ["estrutura3"]=>
  NULL
  ["estrutura4"]=>
  NULL
  ["estrutura5"]=>
  NULL
  ["n_colaborador"]=>
  NULL
  ["nome_cod80"]=>
  NULL
  ["nome"]=>
  string(6) "João "
  ["email"]=>
  string(12) "joao@spic.pt"
  ["localidade"]=>
  string(0) ""
  ["aloja_24"]=>
  int(1)
  ["aloja_25"]=>
  int(1)
  ["observacoes"]=>
  NULL
  ["flag_registo"]=>
  int(0)
  ["data_registo"]=>
  string(19) "2017-02-01 19:37:32"
  ["flag_registo_app"]=>
  int(0)
  ["data_registo_app"]=>
  NULL
  ["device_app"]=>
  NULL
  ["flag_checkin"]=>
  int(0)
  ["data_checkin"]=>
  NULL
  ["mesa"]=>
  NULL
  ["data_mesa"]=>
  string(19) "0000-00-00 00:00:00"
  ["n_telemovel"]=>
  NULL
  ["cod_acesso"]=>
  string(9) "771475162"
  ["restricoes_ali"]=>
  string(2) "23"
  ["rest_ali_outras"]=>
  string(5) "carne"
  ["transfer"]=>
  int(1)
  ["ponto_partida"]=>
  string(9) "Grândola"
  ["alojamento"]=>
  int(2)
  ["cc"]=>
  string(8) "12345678"
  ["cc_validade"]=>
  string(10) "12/12/2028"
  ["semjantar"]=>
  int(0)
  ["presenca_evento"]=>
  int(1)
}


2017-02-01 19:38:11: dados

2017-02-01 19:38:20: Array

2017-02-01 19:38:20: array(37) {
  ["id"]=>
  int(1)
  ["tipo"]=>
  int(0)
  ["empresa"]=>
  string(4) "SPIC"
  ["sigla"]=>
  NULL
  ["estrutura1"]=>
  NULL
  ["estrutura2"]=>
  NULL
  ["estrutura3"]=>
  NULL
  ["estrutura4"]=>
  NULL
  ["estrutura5"]=>
  NULL
  ["n_colaborador"]=>
  NULL
  ["nome_cod80"]=>
  NULL
  ["nome"]=>
  string(6) "João "
  ["email"]=>
  string(12) "joao@spic.pt"
  ["localidade"]=>
  string(0) ""
  ["aloja_24"]=>
  int(1)
  ["aloja_25"]=>
  int(1)
  ["observacoes"]=>
  NULL
  ["flag_registo"]=>
  int(0)
  ["data_registo"]=>
  string(19) "2017-02-01 19:37:32"
  ["flag_registo_app"]=>
  int(0)
  ["data_registo_app"]=>
  NULL
  ["device_app"]=>
  NULL
  ["flag_checkin"]=>
  int(0)
  ["data_checkin"]=>
  NULL
  ["mesa"]=>
  NULL
  ["data_mesa"]=>
  string(19) "0000-00-00 00:00:00"
  ["n_telemovel"]=>
  NULL
  ["cod_acesso"]=>
  string(9) "771475162"
  ["restricoes_ali"]=>
  string(2) "23"
  ["rest_ali_outras"]=>
  string(5) "carne"
  ["transfer"]=>
  int(1)
  ["ponto_partida"]=>
  string(9) "Grândola"
  ["alojamento"]=>
  int(2)
  ["cc"]=>
  string(8) "12345678"
  ["cc_validade"]=>
  string(10) "12/12/2028"
  ["semjantar"]=>
  int(0)
  ["presenca_evento"]=>
  int(1)
}


2017-02-01 19:38:20: dados

2017-02-01 19:38:25: Array

2017-02-01 19:38:25: array(37) {
  ["id"]=>
  int(1)
  ["tipo"]=>
  int(0)
  ["empresa"]=>
  string(4) "SPIC"
  ["sigla"]=>
  NULL
  ["estrutura1"]=>
  NULL
  ["estrutura2"]=>
  NULL
  ["estrutura3"]=>
  NULL
  ["estrutura4"]=>
  NULL
  ["estrutura5"]=>
  NULL
  ["n_colaborador"]=>
  NULL
  ["nome_cod80"]=>
  NULL
  ["nome"]=>
  string(6) "João "
  ["email"]=>
  string(12) "joao@spic.pt"
  ["localidade"]=>
  string(0) ""
  ["aloja_24"]=>
  int(1)
  ["aloja_25"]=>
  int(1)
  ["observacoes"]=>
  NULL
  ["flag_registo"]=>
  int(0)
  ["data_registo"]=>
  string(19) "2017-02-01 19:37:32"
  ["flag_registo_app"]=>
  int(0)
  ["data_registo_app"]=>
  NULL
  ["device_app"]=>
  NULL
  ["flag_checkin"]=>
  int(0)
  ["data_checkin"]=>
  NULL
  ["mesa"]=>
  NULL
  ["data_mesa"]=>
  string(19) "0000-00-00 00:00:00"
  ["n_telemovel"]=>
  NULL
  ["cod_acesso"]=>
  string(9) "771475162"
  ["restricoes_ali"]=>
  string(2) "23"
  ["rest_ali_outras"]=>
  string(5) "carne"
  ["transfer"]=>
  int(1)
  ["ponto_partida"]=>
  string(9) "Grândola"
  ["alojamento"]=>
  int(2)
  ["cc"]=>
  string(8) "12345678"
  ["cc_validade"]=>
  string(10) "12/12/2028"
  ["semjantar"]=>
  int(0)
  ["presenca_evento"]=>
  int(1)
}


2017-02-01 19:38:26: dados

2017-02-01 19:38:29: Array

2017-02-01 19:38:29: array(37) {
  ["id"]=>
  int(1)
  ["tipo"]=>
  int(0)
  ["empresa"]=>
  string(4) "SPIC"
  ["sigla"]=>
  NULL
  ["estrutura1"]=>
  NULL
  ["estrutura2"]=>
  NULL
  ["estrutura3"]=>
  NULL
  ["estrutura4"]=>
  NULL
  ["estrutura5"]=>
  NULL
  ["n_colaborador"]=>
  NULL
  ["nome_cod80"]=>
  NULL
  ["nome"]=>
  string(6) "João "
  ["email"]=>
  string(12) "joao@spic.pt"
  ["localidade"]=>
  string(0) ""
  ["aloja_24"]=>
  int(1)
  ["aloja_25"]=>
  int(1)
  ["observacoes"]=>
  NULL
  ["flag_registo"]=>
  int(0)
  ["data_registo"]=>
  string(19) "2017-02-01 19:37:32"
  ["flag_registo_app"]=>
  int(0)
  ["data_registo_app"]=>
  NULL
  ["device_app"]=>
  NULL
  ["flag_checkin"]=>
  int(0)
  ["data_checkin"]=>
  NULL
  ["mesa"]=>
  NULL
  ["data_mesa"]=>
  string(19) "0000-00-00 00:00:00"
  ["n_telemovel"]=>
  NULL
  ["cod_acesso"]=>
  string(9) "771475162"
  ["restricoes_ali"]=>
  string(2) "23"
  ["rest_ali_outras"]=>
  string(5) "carne"
  ["transfer"]=>
  int(1)
  ["ponto_partida"]=>
  string(9) "Grândola"
  ["alojamento"]=>
  int(2)
  ["cc"]=>
  string(8) "12345678"
  ["cc_validade"]=>
  string(10) "12/12/2028"
  ["semjantar"]=>
  int(0)
  ["presenca_evento"]=>
  int(1)
}


2017-02-01 19:38:29: dados

2017-02-01 19:38:33: Array

2017-02-01 19:38:33: array(37) {
  ["id"]=>
  int(1)
  ["tipo"]=>
  int(0)
  ["empresa"]=>
  string(4) "SPIC"
  ["sigla"]=>
  NULL
  ["estrutura1"]=>
  NULL
  ["estrutura2"]=>
  NULL
  ["estrutura3"]=>
  NULL
  ["estrutura4"]=>
  NULL
  ["estrutura5"]=>
  NULL
  ["n_colaborador"]=>
  NULL
  ["nome_cod80"]=>
  NULL
  ["nome"]=>
  string(6) "João "
  ["email"]=>
  string(12) "joao@spic.pt"
  ["localidade"]=>
  string(0) ""
  ["aloja_24"]=>
  int(1)
  ["aloja_25"]=>
  int(1)
  ["observacoes"]=>
  NULL
  ["flag_registo"]=>
  int(0)
  ["data_registo"]=>
  string(19) "2017-02-01 19:37:32"
  ["flag_registo_app"]=>
  int(0)
  ["data_registo_app"]=>
  NULL
  ["device_app"]=>
  NULL
  ["flag_checkin"]=>
  int(0)
  ["data_checkin"]=>
  NULL
  ["mesa"]=>
  NULL
  ["data_mesa"]=>
  string(19) "0000-00-00 00:00:00"
  ["n_telemovel"]=>
  NULL
  ["cod_acesso"]=>
  string(9) "771475162"
  ["restricoes_ali"]=>
  string(2) "23"
  ["rest_ali_outras"]=>
  string(5) "carne"
  ["transfer"]=>
  int(1)
  ["ponto_partida"]=>
  string(9) "Grândola"
  ["alojamento"]=>
  int(2)
  ["cc"]=>
  string(8) "12345678"
  ["cc_validade"]=>
  string(10) "12/12/2028"
  ["semjantar"]=>
  int(0)
  ["presenca_evento"]=>
  int(1)
}


2017-02-01 19:38:33: dados

2017-02-01 19:38:42: Array

2017-02-01 19:38:42: array(37) {
  ["id"]=>
  int(1)
  ["tipo"]=>
  int(0)
  ["empresa"]=>
  string(4) "SPIC"
  ["sigla"]=>
  NULL
  ["estrutura1"]=>
  NULL
  ["estrutura2"]=>
  NULL
  ["estrutura3"]=>
  NULL
  ["estrutura4"]=>
  NULL
  ["estrutura5"]=>
  NULL
  ["n_colaborador"]=>
  NULL
  ["nome_cod80"]=>
  NULL
  ["nome"]=>
  string(6) "João "
  ["email"]=>
  string(12) "joao@spic.pt"
  ["localidade"]=>
  string(0) ""
  ["aloja_24"]=>
  int(1)
  ["aloja_25"]=>
  int(1)
  ["observacoes"]=>
  NULL
  ["flag_registo"]=>
  int(0)
  ["data_registo"]=>
  string(19) "2017-02-01 19:37:32"
  ["flag_registo_app"]=>
  int(0)
  ["data_registo_app"]=>
  NULL
  ["device_app"]=>
  NULL
  ["flag_checkin"]=>
  int(0)
  ["data_checkin"]=>
  NULL
  ["mesa"]=>
  NULL
  ["data_mesa"]=>
  string(19) "0000-00-00 00:00:00"
  ["n_telemovel"]=>
  NULL
  ["cod_acesso"]=>
  string(9) "771475162"
  ["restricoes_ali"]=>
  string(2) "23"
  ["rest_ali_outras"]=>
  string(5) "carne"
  ["transfer"]=>
  int(1)
  ["ponto_partida"]=>
  string(9) "Grândola"
  ["alojamento"]=>
  int(2)
  ["cc"]=>
  string(8) "12345678"
  ["cc_validade"]=>
  string(10) "12/12/2028"
  ["semjantar"]=>
  int(0)
  ["presenca_evento"]=>
  int(1)
}


2017-02-01 19:38:42: dados

2017-02-01 19:41:45: Array

2017-02-01 19:41:45: array(37) {
  ["id"]=>
  int(1)
  ["tipo"]=>
  int(0)
  ["empresa"]=>
  string(4) "SPIC"
  ["sigla"]=>
  NULL
  ["estrutura1"]=>
  NULL
  ["estrutura2"]=>
  NULL
  ["estrutura3"]=>
  NULL
  ["estrutura4"]=>
  NULL
  ["estrutura5"]=>
  NULL
  ["n_colaborador"]=>
  NULL
  ["nome_cod80"]=>
  NULL
  ["nome"]=>
  string(6) "João "
  ["email"]=>
  string(12) "joao@spic.pt"
  ["localidade"]=>
  string(0) ""
  ["aloja_24"]=>
  int(1)
  ["aloja_25"]=>
  int(1)
  ["observacoes"]=>
  NULL
  ["flag_registo"]=>
  int(0)
  ["data_registo"]=>
  string(19) "2017-02-01 19:41:29"
  ["flag_registo_app"]=>
  int(0)
  ["data_registo_app"]=>
  NULL
  ["device_app"]=>
  NULL
  ["flag_checkin"]=>
  int(0)
  ["data_checkin"]=>
  NULL
  ["mesa"]=>
  NULL
  ["data_mesa"]=>
  string(19) "0000-00-00 00:00:00"
  ["n_telemovel"]=>
  NULL
  ["cod_acesso"]=>
  string(9) "218230021"
  ["restricoes_ali"]=>
  string(2) "23"
  ["rest_ali_outras"]=>
  string(5) "carne"
  ["transfer"]=>
  int(1)
  ["ponto_partida"]=>
  string(9) "Grândola"
  ["alojamento"]=>
  int(2)
  ["cc"]=>
  string(8) "12345678"
  ["cc_validade"]=>
  string(10) "25/02/2017"
  ["semjantar"]=>
  int(0)
  ["presenca_evento"]=>
  int(1)
}


2017-02-01 19:41:45: dados

2017-02-01 19:41:58: Array

2017-02-01 19:41:58: array(37) {
  ["id"]=>
  int(1)
  ["tipo"]=>
  int(0)
  ["empresa"]=>
  string(4) "SPIC"
  ["sigla"]=>
  NULL
  ["estrutura1"]=>
  NULL
  ["estrutura2"]=>
  NULL
  ["estrutura3"]=>
  NULL
  ["estrutura4"]=>
  NULL
  ["estrutura5"]=>
  NULL
  ["n_colaborador"]=>
  NULL
  ["nome_cod80"]=>
  NULL
  ["nome"]=>
  string(6) "João "
  ["email"]=>
  string(12) "joao@spic.pt"
  ["localidade"]=>
  string(0) ""
  ["aloja_24"]=>
  int(1)
  ["aloja_25"]=>
  int(1)
  ["observacoes"]=>
  NULL
  ["flag_registo"]=>
  int(0)
  ["data_registo"]=>
  string(19) "2017-02-01 19:41:29"
  ["flag_registo_app"]=>
  int(0)
  ["data_registo_app"]=>
  NULL
  ["device_app"]=>
  NULL
  ["flag_checkin"]=>
  int(0)
  ["data_checkin"]=>
  NULL
  ["mesa"]=>
  NULL
  ["data_mesa"]=>
  string(19) "0000-00-00 00:00:00"
  ["n_telemovel"]=>
  NULL
  ["cod_acesso"]=>
  string(9) "218230021"
  ["restricoes_ali"]=>
  string(2) "23"
  ["rest_ali_outras"]=>
  string(5) "carne"
  ["transfer"]=>
  int(1)
  ["ponto_partida"]=>
  string(9) "Grândola"
  ["alojamento"]=>
  int(2)
  ["cc"]=>
  string(8) "12345678"
  ["cc_validade"]=>
  string(10) "25/02/2017"
  ["semjantar"]=>
  int(0)
  ["presenca_evento"]=>
  int(1)
}


2017-02-01 19:41:58: dados

2017-02-01 19:42:00: Array

2017-02-01 19:42:00: array(37) {
  ["id"]=>
  int(1)
  ["tipo"]=>
  int(0)
  ["empresa"]=>
  string(4) "SPIC"
  ["sigla"]=>
  NULL
  ["estrutura1"]=>
  NULL
  ["estrutura2"]=>
  NULL
  ["estrutura3"]=>
  NULL
  ["estrutura4"]=>
  NULL
  ["estrutura5"]=>
  NULL
  ["n_colaborador"]=>
  NULL
  ["nome_cod80"]=>
  NULL
  ["nome"]=>
  string(6) "João "
  ["email"]=>
  string(12) "joao@spic.pt"
  ["localidade"]=>
  string(0) ""
  ["aloja_24"]=>
  int(1)
  ["aloja_25"]=>
  int(1)
  ["observacoes"]=>
  NULL
  ["flag_registo"]=>
  int(0)
  ["data_registo"]=>
  string(19) "2017-02-01 19:41:29"
  ["flag_registo_app"]=>
  int(0)
  ["data_registo_app"]=>
  NULL
  ["device_app"]=>
  NULL
  ["flag_checkin"]=>
  int(0)
  ["data_checkin"]=>
  NULL
  ["mesa"]=>
  NULL
  ["data_mesa"]=>
  string(19) "0000-00-00 00:00:00"
  ["n_telemovel"]=>
  NULL
  ["cod_acesso"]=>
  string(9) "218230021"
  ["restricoes_ali"]=>
  string(2) "23"
  ["rest_ali_outras"]=>
  string(5) "carne"
  ["transfer"]=>
  int(1)
  ["ponto_partida"]=>
  string(9) "Grândola"
  ["alojamento"]=>
  int(2)
  ["cc"]=>
  string(8) "12345678"
  ["cc_validade"]=>
  string(10) "25/02/2017"
  ["semjantar"]=>
  int(0)
  ["presenca_evento"]=>
  int(1)
}


2017-02-01 19:42:00: dados

2017-02-01 19:42:02: Array

2017-02-01 19:42:02: array(37) {
  ["id"]=>
  int(1)
  ["tipo"]=>
  int(0)
  ["empresa"]=>
  string(4) "SPIC"
  ["sigla"]=>
  NULL
  ["estrutura1"]=>
  NULL
  ["estrutura2"]=>
  NULL
  ["estrutura3"]=>
  NULL
  ["estrutura4"]=>
  NULL
  ["estrutura5"]=>
  NULL
  ["n_colaborador"]=>
  NULL
  ["nome_cod80"]=>
  NULL
  ["nome"]=>
  string(6) "João "
  ["email"]=>
  string(12) "joao@spic.pt"
  ["localidade"]=>
  string(0) ""
  ["aloja_24"]=>
  int(1)
  ["aloja_25"]=>
  int(1)
  ["observacoes"]=>
  NULL
  ["flag_registo"]=>
  int(0)
  ["data_registo"]=>
  string(19) "2017-02-01 19:41:29"
  ["flag_registo_app"]=>
  int(0)
  ["data_registo_app"]=>
  NULL
  ["device_app"]=>
  NULL
  ["flag_checkin"]=>
  int(0)
  ["data_checkin"]=>
  NULL
  ["mesa"]=>
  NULL
  ["data_mesa"]=>
  string(19) "0000-00-00 00:00:00"
  ["n_telemovel"]=>
  NULL
  ["cod_acesso"]=>
  string(9) "218230021"
  ["restricoes_ali"]=>
  string(2) "23"
  ["rest_ali_outras"]=>
  string(5) "carne"
  ["transfer"]=>
  int(1)
  ["ponto_partida"]=>
  string(9) "Grândola"
  ["alojamento"]=>
  int(2)
  ["cc"]=>
  string(8) "12345678"
  ["cc_validade"]=>
  string(10) "25/02/2017"
  ["semjantar"]=>
  int(0)
  ["presenca_evento"]=>
  int(1)
}


2017-02-01 19:42:03: dados

2017-02-01 19:42:39: Array

2017-02-01 19:42:39: array(37) {
  ["id"]=>
  int(1)
  ["tipo"]=>
  int(0)
  ["empresa"]=>
  string(4) "SPIC"
  ["sigla"]=>
  NULL
  ["estrutura1"]=>
  NULL
  ["estrutura2"]=>
  NULL
  ["estrutura3"]=>
  NULL
  ["estrutura4"]=>
  NULL
  ["estrutura5"]=>
  NULL
  ["n_colaborador"]=>
  NULL
  ["nome_cod80"]=>
  NULL
  ["nome"]=>
  string(6) "João "
  ["email"]=>
  string(12) "joao@spic.pt"
  ["localidade"]=>
  string(0) ""
  ["aloja_24"]=>
  int(1)
  ["aloja_25"]=>
  int(1)
  ["observacoes"]=>
  NULL
  ["flag_registo"]=>
  int(0)
  ["data_registo"]=>
  string(19) "2017-02-01 19:41:29"
  ["flag_registo_app"]=>
  int(0)
  ["data_registo_app"]=>
  NULL
  ["device_app"]=>
  NULL
  ["flag_checkin"]=>
  int(0)
  ["data_checkin"]=>
  NULL
  ["mesa"]=>
  NULL
  ["data_mesa"]=>
  string(19) "0000-00-00 00:00:00"
  ["n_telemovel"]=>
  NULL
  ["cod_acesso"]=>
  string(9) "218230021"
  ["restricoes_ali"]=>
  string(2) "23"
  ["rest_ali_outras"]=>
  string(5) "carne"
  ["transfer"]=>
  int(1)
  ["ponto_partida"]=>
  string(9) "Grândola"
  ["alojamento"]=>
  int(2)
  ["cc"]=>
  string(8) "12345678"
  ["cc_validade"]=>
  string(10) "25/02/2017"
  ["semjantar"]=>
  int(0)
  ["presenca_evento"]=>
  int(1)
}


2017-02-01 19:42:39: dados

2017-02-01 19:42:52: Array

2017-02-01 19:42:52: array(37) {
  ["id"]=>
  int(1)
  ["tipo"]=>
  int(0)
  ["empresa"]=>
  string(4) "SPIC"
  ["sigla"]=>
  NULL
  ["estrutura1"]=>
  NULL
  ["estrutura2"]=>
  NULL
  ["estrutura3"]=>
  NULL
  ["estrutura4"]=>
  NULL
  ["estrutura5"]=>
  NULL
  ["n_colaborador"]=>
  NULL
  ["nome_cod80"]=>
  NULL
  ["nome"]=>
  string(6) "João "
  ["email"]=>
  string(12) "joao@spic.pt"
  ["localidade"]=>
  string(0) ""
  ["aloja_24"]=>
  int(1)
  ["aloja_25"]=>
  int(1)
  ["observacoes"]=>
  NULL
  ["flag_registo"]=>
  int(0)
  ["data_registo"]=>
  string(19) "2017-02-01 19:41:29"
  ["flag_registo_app"]=>
  int(0)
  ["data_registo_app"]=>
  NULL
  ["device_app"]=>
  NULL
  ["flag_checkin"]=>
  int(0)
  ["data_checkin"]=>
  NULL
  ["mesa"]=>
  NULL
  ["data_mesa"]=>
  string(19) "0000-00-00 00:00:00"
  ["n_telemovel"]=>
  NULL
  ["cod_acesso"]=>
  string(9) "218230021"
  ["restricoes_ali"]=>
  string(2) "23"
  ["rest_ali_outras"]=>
  string(5) "carne"
  ["transfer"]=>
  int(1)
  ["ponto_partida"]=>
  string(9) "Grândola"
  ["alojamento"]=>
  int(2)
  ["cc"]=>
  string(8) "12345678"
  ["cc_validade"]=>
  string(10) "25/02/2017"
  ["semjantar"]=>
  int(0)
  ["presenca_evento"]=>
  int(1)
}


2017-02-01 19:42:52: dados

2017-02-01 19:43:06: Array

2017-02-01 19:43:07: array(37) {
  ["id"]=>
  int(1)
  ["tipo"]=>
  int(0)
  ["empresa"]=>
  string(4) "SPIC"
  ["sigla"]=>
  NULL
  ["estrutura1"]=>
  NULL
  ["estrutura2"]=>
  NULL
  ["estrutura3"]=>
  NULL
  ["estrutura4"]=>
  NULL
  ["estrutura5"]=>
  NULL
  ["n_colaborador"]=>
  NULL
  ["nome_cod80"]=>
  NULL
  ["nome"]=>
  string(6) "João "
  ["email"]=>
  string(12) "joao@spic.pt"
  ["localidade"]=>
  string(0) ""
  ["aloja_24"]=>
  int(1)
  ["aloja_25"]=>
  int(1)
  ["observacoes"]=>
  NULL
  ["flag_registo"]=>
  int(0)
  ["data_registo"]=>
  string(19) "2017-02-01 19:42:52"
  ["flag_registo_app"]=>
  int(0)
  ["data_registo_app"]=>
  NULL
  ["device_app"]=>
  NULL
  ["flag_checkin"]=>
  int(0)
  ["data_checkin"]=>
  NULL
  ["mesa"]=>
  NULL
  ["data_mesa"]=>
  string(19) "0000-00-00 00:00:00"
  ["n_telemovel"]=>
  NULL
  ["cod_acesso"]=>
  string(9) "029367270"
  ["restricoes_ali"]=>
  string(2) "23"
  ["rest_ali_outras"]=>
  string(5) "carne"
  ["transfer"]=>
  int(1)
  ["ponto_partida"]=>
  string(9) "Grândola"
  ["alojamento"]=>
  int(2)
  ["cc"]=>
  string(8) "12345678"
  ["cc_validade"]=>
  string(10) "25/03/2017"
  ["semjantar"]=>
  int(0)
  ["presenca_evento"]=>
  int(1)
}


2017-02-01 19:43:07: dados

2017-02-01 19:43:11: Array

2017-02-01 19:43:11: array(37) {
  ["id"]=>
  int(1)
  ["tipo"]=>
  int(0)
  ["empresa"]=>
  string(4) "SPIC"
  ["sigla"]=>
  NULL
  ["estrutura1"]=>
  NULL
  ["estrutura2"]=>
  NULL
  ["estrutura3"]=>
  NULL
  ["estrutura4"]=>
  NULL
  ["estrutura5"]=>
  NULL
  ["n_colaborador"]=>
  NULL
  ["nome_cod80"]=>
  NULL
  ["nome"]=>
  string(6) "João "
  ["email"]=>
  string(12) "joao@spic.pt"
  ["localidade"]=>
  string(0) ""
  ["aloja_24"]=>
  int(1)
  ["aloja_25"]=>
  int(1)
  ["observacoes"]=>
  NULL
  ["flag_registo"]=>
  int(0)
  ["data_registo"]=>
  string(19) "2017-02-01 19:42:52"
  ["flag_registo_app"]=>
  int(0)
  ["data_registo_app"]=>
  NULL
  ["device_app"]=>
  NULL
  ["flag_checkin"]=>
  int(0)
  ["data_checkin"]=>
  NULL
  ["mesa"]=>
  NULL
  ["data_mesa"]=>
  string(19) "0000-00-00 00:00:00"
  ["n_telemovel"]=>
  NULL
  ["cod_acesso"]=>
  string(9) "029367270"
  ["restricoes_ali"]=>
  string(2) "23"
  ["rest_ali_outras"]=>
  string(5) "carne"
  ["transfer"]=>
  int(1)
  ["ponto_partida"]=>
  string(9) "Grândola"
  ["alojamento"]=>
  int(2)
  ["cc"]=>
  string(8) "12345678"
  ["cc_validade"]=>
  string(10) "25/03/2017"
  ["semjantar"]=>
  int(0)
  ["presenca_evento"]=>
  int(1)
}


2017-02-01 19:43:11: dados

2017-02-01 19:43:12: Array

2017-02-01 19:43:12: array(37) {
  ["id"]=>
  int(1)
  ["tipo"]=>
  int(0)
  ["empresa"]=>
  string(4) "SPIC"
  ["sigla"]=>
  NULL
  ["estrutura1"]=>
  NULL
  ["estrutura2"]=>
  NULL
  ["estrutura3"]=>
  NULL
  ["estrutura4"]=>
  NULL
  ["estrutura5"]=>
  NULL
  ["n_colaborador"]=>
  NULL
  ["nome_cod80"]=>
  NULL
  ["nome"]=>
  string(6) "João "
  ["email"]=>
  string(12) "joao@spic.pt"
  ["localidade"]=>
  string(0) ""
  ["aloja_24"]=>
  int(1)
  ["aloja_25"]=>
  int(1)
  ["observacoes"]=>
  NULL
  ["flag_registo"]=>
  int(0)
  ["data_registo"]=>
  string(19) "2017-02-01 19:42:52"
  ["flag_registo_app"]=>
  int(0)
  ["data_registo_app"]=>
  NULL
  ["device_app"]=>
  NULL
  ["flag_checkin"]=>
  int(0)
  ["data_checkin"]=>
  NULL
  ["mesa"]=>
  NULL
  ["data_mesa"]=>
  string(19) "0000-00-00 00:00:00"
  ["n_telemovel"]=>
  NULL
  ["cod_acesso"]=>
  string(9) "029367270"
  ["restricoes_ali"]=>
  string(2) "23"
  ["rest_ali_outras"]=>
  string(5) "carne"
  ["transfer"]=>
  int(1)
  ["ponto_partida"]=>
  string(9) "Grândola"
  ["alojamento"]=>
  int(2)
  ["cc"]=>
  string(8) "12345678"
  ["cc_validade"]=>
  string(10) "25/03/2017"
  ["semjantar"]=>
  int(0)
  ["presenca_evento"]=>
  int(1)
}


2017-02-01 19:43:12: dados

2017-02-01 19:43:13: Array

2017-02-01 19:43:13: array(37) {
  ["id"]=>
  int(1)
  ["tipo"]=>
  int(0)
  ["empresa"]=>
  string(4) "SPIC"
  ["sigla"]=>
  NULL
  ["estrutura1"]=>
  NULL
  ["estrutura2"]=>
  NULL
  ["estrutura3"]=>
  NULL
  ["estrutura4"]=>
  NULL
  ["estrutura5"]=>
  NULL
  ["n_colaborador"]=>
  NULL
  ["nome_cod80"]=>
  NULL
  ["nome"]=>
  string(6) "João "
  ["email"]=>
  string(12) "joao@spic.pt"
  ["localidade"]=>
  string(0) ""
  ["aloja_24"]=>
  int(1)
  ["aloja_25"]=>
  int(1)
  ["observacoes"]=>
  NULL
  ["flag_registo"]=>
  int(0)
  ["data_registo"]=>
  string(19) "2017-02-01 19:42:52"
  ["flag_registo_app"]=>
  int(0)
  ["data_registo_app"]=>
  NULL
  ["device_app"]=>
  NULL
  ["flag_checkin"]=>
  int(0)
  ["data_checkin"]=>
  NULL
  ["mesa"]=>
  NULL
  ["data_mesa"]=>
  string(19) "0000-00-00 00:00:00"
  ["n_telemovel"]=>
  NULL
  ["cod_acesso"]=>
  string(9) "029367270"
  ["restricoes_ali"]=>
  string(2) "23"
  ["rest_ali_outras"]=>
  string(5) "carne"
  ["transfer"]=>
  int(1)
  ["ponto_partida"]=>
  string(9) "Grândola"
  ["alojamento"]=>
  int(2)
  ["cc"]=>
  string(8) "12345678"
  ["cc_validade"]=>
  string(10) "25/03/2017"
  ["semjantar"]=>
  int(0)
  ["presenca_evento"]=>
  int(1)
}


2017-02-01 19:43:13: dados

2017-02-01 19:43:28: Array

2017-02-01 19:43:28: array(37) {
  ["id"]=>
  int(1)
  ["tipo"]=>
  int(0)
  ["empresa"]=>
  string(4) "SPIC"
  ["sigla"]=>
  NULL
  ["estrutura1"]=>
  NULL
  ["estrutura2"]=>
  NULL
  ["estrutura3"]=>
  NULL
  ["estrutura4"]=>
  NULL
  ["estrutura5"]=>
  NULL
  ["n_colaborador"]=>
  NULL
  ["nome_cod80"]=>
  NULL
  ["nome"]=>
  string(6) "João "
  ["email"]=>
  string(12) "joao@spic.pt"
  ["localidade"]=>
  string(0) ""
  ["aloja_24"]=>
  int(1)
  ["aloja_25"]=>
  int(1)
  ["observacoes"]=>
  NULL
  ["flag_registo"]=>
  int(0)
  ["data_registo"]=>
  string(19) "2017-02-01 19:42:52"
  ["flag_registo_app"]=>
  int(0)
  ["data_registo_app"]=>
  NULL
  ["device_app"]=>
  NULL
  ["flag_checkin"]=>
  int(0)
  ["data_checkin"]=>
  NULL
  ["mesa"]=>
  NULL
  ["data_mesa"]=>
  string(19) "0000-00-00 00:00:00"
  ["n_telemovel"]=>
  NULL
  ["cod_acesso"]=>
  string(9) "029367270"
  ["restricoes_ali"]=>
  string(2) "23"
  ["rest_ali_outras"]=>
  string(5) "carne"
  ["transfer"]=>
  int(1)
  ["ponto_partida"]=>
  string(9) "Grândola"
  ["alojamento"]=>
  int(2)
  ["cc"]=>
  string(8) "12345678"
  ["cc_validade"]=>
  string(10) "25/03/2017"
  ["semjantar"]=>
  int(0)
  ["presenca_evento"]=>
  int(1)
}


2017-02-01 19:43:28: dados

2017-02-01 19:43:46: Array

2017-02-01 19:43:46: array(37) {
  ["id"]=>
  int(1)
  ["tipo"]=>
  int(0)
  ["empresa"]=>
  string(4) "SPIC"
  ["sigla"]=>
  NULL
  ["estrutura1"]=>
  NULL
  ["estrutura2"]=>
  NULL
  ["estrutura3"]=>
  NULL
  ["estrutura4"]=>
  NULL
  ["estrutura5"]=>
  NULL
  ["n_colaborador"]=>
  NULL
  ["nome_cod80"]=>
  NULL
  ["nome"]=>
  string(6) "João "
  ["email"]=>
  string(12) "joao@spic.pt"
  ["localidade"]=>
  string(0) ""
  ["aloja_24"]=>
  int(1)
  ["aloja_25"]=>
  int(1)
  ["observacoes"]=>
  NULL
  ["flag_registo"]=>
  int(0)
  ["data_registo"]=>
  string(19) "2017-02-01 19:42:52"
  ["flag_registo_app"]=>
  int(0)
  ["data_registo_app"]=>
  NULL
  ["device_app"]=>
  NULL
  ["flag_checkin"]=>
  int(0)
  ["data_checkin"]=>
  NULL
  ["mesa"]=>
  NULL
  ["data_mesa"]=>
  string(19) "0000-00-00 00:00:00"
  ["n_telemovel"]=>
  NULL
  ["cod_acesso"]=>
  string(9) "029367270"
  ["restricoes_ali"]=>
  string(2) "23"
  ["rest_ali_outras"]=>
  string(5) "carne"
  ["transfer"]=>
  int(1)
  ["ponto_partida"]=>
  string(9) "Grândola"
  ["alojamento"]=>
  int(2)
  ["cc"]=>
  string(8) "12345678"
  ["cc_validade"]=>
  string(10) "25/03/2017"
  ["semjantar"]=>
  int(0)
  ["presenca_evento"]=>
  int(1)
}


2017-02-01 19:43:46: dados

2017-02-01 19:43:54: Array

2017-02-01 19:43:54: array(37) {
  ["id"]=>
  int(1)
  ["tipo"]=>
  int(0)
  ["empresa"]=>
  string(4) "SPIC"
  ["sigla"]=>
  NULL
  ["estrutura1"]=>
  NULL
  ["estrutura2"]=>
  NULL
  ["estrutura3"]=>
  NULL
  ["estrutura4"]=>
  NULL
  ["estrutura5"]=>
  NULL
  ["n_colaborador"]=>
  NULL
  ["nome_cod80"]=>
  NULL
  ["nome"]=>
  string(6) "João "
  ["email"]=>
  string(12) "joao@spic.pt"
  ["localidade"]=>
  string(0) ""
  ["aloja_24"]=>
  int(1)
  ["aloja_25"]=>
  int(1)
  ["observacoes"]=>
  NULL
  ["flag_registo"]=>
  int(0)
  ["data_registo"]=>
  string(19) "2017-02-01 19:42:52"
  ["flag_registo_app"]=>
  int(0)
  ["data_registo_app"]=>
  NULL
  ["device_app"]=>
  NULL
  ["flag_checkin"]=>
  int(0)
  ["data_checkin"]=>
  NULL
  ["mesa"]=>
  NULL
  ["data_mesa"]=>
  string(19) "0000-00-00 00:00:00"
  ["n_telemovel"]=>
  NULL
  ["cod_acesso"]=>
  string(9) "029367270"
  ["restricoes_ali"]=>
  string(2) "23"
  ["rest_ali_outras"]=>
  string(5) "carne"
  ["transfer"]=>
  int(1)
  ["ponto_partida"]=>
  string(9) "Grândola"
  ["alojamento"]=>
  int(2)
  ["cc"]=>
  string(8) "12345678"
  ["cc_validade"]=>
  string(10) "25/03/2017"
  ["semjantar"]=>
  int(0)
  ["presenca_evento"]=>
  int(1)
}


2017-02-01 19:43:54: dados

2017-02-01 19:44:09: Array

2017-02-01 19:44:09: array(37) {
  ["id"]=>
  int(1)
  ["tipo"]=>
  int(0)
  ["empresa"]=>
  string(4) "SPIC"
  ["sigla"]=>
  NULL
  ["estrutura1"]=>
  NULL
  ["estrutura2"]=>
  NULL
  ["estrutura3"]=>
  NULL
  ["estrutura4"]=>
  NULL
  ["estrutura5"]=>
  NULL
  ["n_colaborador"]=>
  NULL
  ["nome_cod80"]=>
  NULL
  ["nome"]=>
  string(6) "João "
  ["email"]=>
  string(12) "joao@spic.pt"
  ["localidade"]=>
  string(0) ""
  ["aloja_24"]=>
  int(1)
  ["aloja_25"]=>
  int(1)
  ["observacoes"]=>
  NULL
  ["flag_registo"]=>
  int(0)
  ["data_registo"]=>
  string(19) "2017-02-01 19:42:52"
  ["flag_registo_app"]=>
  int(0)
  ["data_registo_app"]=>
  NULL
  ["device_app"]=>
  NULL
  ["flag_checkin"]=>
  int(0)
  ["data_checkin"]=>
  NULL
  ["mesa"]=>
  NULL
  ["data_mesa"]=>
  string(19) "0000-00-00 00:00:00"
  ["n_telemovel"]=>
  NULL
  ["cod_acesso"]=>
  string(9) "029367270"
  ["restricoes_ali"]=>
  string(2) "23"
  ["rest_ali_outras"]=>
  string(5) "carne"
  ["transfer"]=>
  int(1)
  ["ponto_partida"]=>
  string(9) "Grândola"
  ["alojamento"]=>
  int(2)
  ["cc"]=>
  string(8) "12345678"
  ["cc_validade"]=>
  string(10) "25/03/2017"
  ["semjantar"]=>
  int(0)
  ["presenca_evento"]=>
  int(1)
}


2017-02-01 19:44:09: dados

