<?xml version="1.0" encoding="utf-8"?>
<!-- Generator: Adobe Illustrator 21.0.2, SVG Export Plug-In . SVG Version: 6.00 Build 0)  -->
<svg version="1.1" id="Camada_1" xmlns="http://www.w3.org/2000/svg" xmlns:xlink="http://www.w3.org/1999/xlink" x="0px" y="0px"
	 viewBox="0 0 54.2 269.6" style="enable-background:new 0 0 54.2 269.6;" xml:space="preserve">
<style type="text/css">
	.st0{fill:#ED2D29;}
	.st1{fill:#A6A8AB;}
</style>
<g>
	<rect x="0" y="39.5" transform="matrix(-1 -4.584700e-11 4.584700e-11 -1 4.1262 133.0326)" class="st0" width="4.1" height="54"/>
	
		<rect x="9.5" y="0" transform="matrix(-1 -4.584700e-11 4.584700e-11 -1 23.1068 35.3308)" class="st0" width="4.1" height="35.3"/>
	
		<rect x="9.5" y="234.3" transform="matrix(-1 -4.584700e-11 4.584700e-11 -1 23.1068 503.8375)" class="st0" width="4.1" height="35.3"/>
	
		<rect x="9.5" y="106" transform="matrix(-1 -4.584700e-11 4.584700e-11 -1 23.1068 266.0652)" class="st0" width="4.1" height="54"/>
	
		<rect x="0" y="173.1" transform="matrix(-1 -4.849200e-11 4.849200e-11 -1 4.1262 400.3316)" class="st0" width="4.1" height="54"/>
	<path class="st1" d="M33.1,194.7c0-2.1,0.5-4,1.3-5.6h1.9c-1,1.5-1.6,3.5-1.6,5.6c0,5.5,3.9,9.2,9,9.2s9-3.7,9-9.3
		c0-2.2-0.7-4.2-1.8-5.9h1.9c1,1.7,1.5,3.8,1.5,6c0,6.5-4.6,11-10.6,11C37.8,205.6,33.1,201.3,33.1,194.7z"/>
	<path class="st1" d="M33.1,175.1c0-6.1,4.7-10.6,10.6-10.6s10.6,4.6,10.6,10.6s-4.7,10.6-10.6,10.6S33.1,181.2,33.1,175.1z
		 M52.6,175.1c0-5.1-4-8.8-9-8.8s-9,3.7-9,8.8c0,5.1,4,8.8,9,8.8S52.6,180.2,52.6,175.1z"/>
	<path class="st1" d="M33.1,150.8c0-2.1,0.5-4,1.3-5.6h1.9c-1,1.5-1.6,3.5-1.6,5.6c0,5.5,3.9,9.2,9,9.2s9-3.7,9-9.3
		c0-2.2-0.7-4.2-1.8-5.9h1.9c1,1.7,1.5,3.8,1.5,6c0,6.5-4.6,11-10.6,11C37.8,161.7,33.1,157.4,33.1,150.8z"/>
	<path class="st1" d="M33.4,140.6v-1.8h9.4l0-0.1l-9.4-10.2v-2.2l9.5,10.4l11-11.2v2.4l-10.8,10.9l0,0.1h10.7v1.8H33.4z"/>
	<path class="st1" d="M35,117.2v7.2h-1.6v-16.3H35v7.2h19v1.8H35z"/>
	<path class="st1" d="M33.4,101.1v-1.7l20.5-8.8v1.9l-6.1,2.6v10.3l6.1,2.6v1.8L33.4,101.1z M41.1,97.9c-1.9,0.8-3.8,1.6-5.6,2.3
		v0.1c1.8,0.7,3.5,1.5,5.6,2.3l5.1,2.2v-9L41.1,97.9z"/>
	<path class="st1" d="M33.4,87.7v-1.8h20.5v1.8H33.4z"/>
	<path class="st1" d="M33.4,80.7v-1.8h19V68.4h1.6v12.2H33.4z"/>
</g>
</svg>
