<?xml version="1.0" encoding="utf-8"?>
<!-- Generator: Adobe Illustrator 16.0.4, SVG Export Plug-In . SVG Version: 6.00 Build 0)  -->
<!DOCTYPE svg PUBLIC "-//W3C//DTD SVG 1.1//EN" "http://www.w3.org/Graphics/SVG/1.1/DTD/svg11.dtd">
<svg version="1.1" id="Layer_1" xmlns="http://www.w3.org/2000/svg" xmlns:xlink="http://www.w3.org/1999/xlink" x="0px" y="0px"
	 width="46.628px" height="46.974px" viewBox="0 0 46.628 46.974" enable-background="new 0 0 46.628 46.974" xml:space="preserve">
<path fill="#1A1A1A" d="M1571.289-206.779c12.285,0,22.248,9.961,22.248,22.246c0,12.29-9.963,22.249-22.248,22.249
	c-12.288,0-22.25-9.959-22.25-22.249C1549.039-196.818,1559-206.779,1571.289-206.779z"/>
<g>
	
		<circle fill="none" stroke="#E02729" stroke-width="3" stroke-linecap="round" stroke-miterlimit="10" cx="1575.089" cy="-187.397" r="7.883"/>
	
		<line fill="none" stroke="#E02729" stroke-width="3" stroke-linecap="round" stroke-miterlimit="10" x1="1569.726" y1="-181.657" x2="1561.851" y2="-173.783"/>
</g>
<path fill="#1A1A1A" d="M23.289,1.221c12.285,0,22.248,9.961,22.248,22.246c0,12.29-9.963,22.249-22.248,22.249
	c-12.288,0-22.25-9.959-22.25-22.249C1.039,11.182,11,1.221,23.289,1.221z"/>
<g>
	
		<circle fill="none" stroke="#E02729" stroke-width="3" stroke-linecap="round" stroke-miterlimit="10" cx="27.089" cy="20.603" r="7.883"/>
	
		<line fill="none" stroke="#E02729" stroke-width="3" stroke-linecap="round" stroke-miterlimit="10" x1="21.726" y1="26.343" x2="13.851" y2="34.217"/>
</g>
</svg>
