<?xml version="1.0" encoding="utf-8"?>
<!-- Generator: Adobe Illustrator 16.0.4, SVG Export Plug-In . SVG Version: 6.00 Build 0)  -->
<!DOCTYPE svg PUBLIC "-//W3C//DTD SVG 1.1//EN" "http://www.w3.org/Graphics/SVG/1.1/DTD/svg11.dtd">
<svg version="1.1" id="Camada_1" xmlns="http://www.w3.org/2000/svg" xmlns:xlink="http://www.w3.org/1999/xlink" x="0px" y="0px"
	 width="856px" height="523px" viewBox="-36.86 160.445 856 523" enable-background="new -36.86 160.445 856 523"
	 xml:space="preserve">
<g id="mesa12">
	<polygon fill="#E5E5E5" points="251.7,270.536 254.319,274.774 277.008,284.124 297.827,317.909 342.831,289.983 321.887,256.324 
		323.508,231.889 320.89,227.65 	"/>
	<polygon fill="#F3F3F3" points="321.887,256.324 277.008,284.124 297.827,317.909 342.831,289.983 	"/>
	<polygon fill="#F3F3F3" points="320.89,227.65 251.7,270.536 254.319,274.774 323.508,231.889 	"/>
	<polygon fill="#E5E5E5" points="323.508,231.889 254.319,274.774 277.008,284.124 321.887,256.324 	"/>
	<g id="adicionar12">
		<circle fill="#E02428" cx="307.551" cy="283.376" r="20.071"/>
		<g>
			
				<line fill="none" stroke="#FFFFFF" stroke-width="4" stroke-linecap="round" stroke-linejoin="round" stroke-miterlimit="10" x1="317.898" y1="283.376" x2="297.203" y2="283.376"/>
			
				<line fill="none" stroke="#FFFFFF" stroke-width="4" stroke-linecap="round" stroke-linejoin="round" stroke-miterlimit="10" x1="307.551" y1="293.724" x2="307.551" y2="272.904"/>
		</g>
	</g>
	<g>
		<g>
			<path fill="#E6E6E6" stroke="#FFFFFF" stroke-miterlimit="10" d="M269.695,235.655c0,10.223-8.228,18.45-18.45,18.45H96.036
				c-10.223,0-18.451-8.228-18.451-18.45s8.229-18.451,18.451-18.451h155.209C261.343,217.204,269.695,225.432,269.695,235.655"/>
			
				<text id="nome_x5F_12" transform="matrix(1 0 0 1 101.7087 241.7617)" fill="#4D4D4D" font-family="'AzoSans-Medium'" font-size="20.2212">José Pedro</text>
			<circle fill="#4D4D4D" cx="254.237" cy="235.655" r="6.607"/>
		</g>
		<g id="erase_x5F_11_3_">
			<ellipse fill="#E02227" cx="77.71" cy="235.858" rx="13.713" ry="13.713"/>
			<g>
				
					<line fill="none" stroke="#FFFFFF" stroke-width="4" stroke-linecap="round" stroke-linejoin="round" stroke-miterlimit="10" x1="72.723" y1="230.917" x2="82.696" y2="240.89"/>
				
					<line fill="none" stroke="#FFFFFF" stroke-width="4" stroke-linecap="round" stroke-linejoin="round" stroke-miterlimit="10" x1="72.723" y1="240.89" x2="82.696" y2="230.917"/>
			</g>
		</g>
	</g>
</g>
<g id="mesa11">
	<polygon fill="#E5E5E5" points="195.477,361.043 199.964,363.412 224.15,360.295 259.056,379.12 284.114,332.495 249.207,313.67 
		238.487,291.729 233.998,289.36 	"/>
	<polygon fill="#F3F3F3" points="249.207,313.67 224.15,360.295 259.056,379.12 284.114,332.495 	"/>
	<polygon fill="#F3F3F3" points="233.998,289.36 195.477,361.043 199.964,363.412 238.487,291.729 	"/>
	<polygon fill="#E5E5E5" points="238.487,291.729 199.964,363.412 224.15,360.295 249.207,313.67 	"/>
	<g id="adicionar11">
		<path fill="#E02428" d="M271.897,346.457c0,11.095-8.977,20.071-20.071,20.071c-11.096,0-20.071-8.976-20.071-20.071
			s8.976-20.071,20.071-20.071C262.92,326.261,271.897,335.237,271.897,346.457z"/>
		<g>
			
				<line fill="none" stroke="#FFFFFF" stroke-width="4" stroke-linecap="round" stroke-linejoin="round" stroke-miterlimit="10" x1="262.173" y1="346.457" x2="241.354" y2="346.457"/>
			
				<line fill="none" stroke="#FFFFFF" stroke-width="4" stroke-linecap="round" stroke-linejoin="round" stroke-miterlimit="10" x1="251.7" y1="356.804" x2="251.7" y2="335.985"/>
		</g>
	</g>
	<g>
		<g>
			<path fill="#E6E6E6" stroke="#FFFFFF" stroke-miterlimit="10" d="M200.418,317.259c0,10.223-8.228,18.45-18.45,18.45H26.759
				c-10.223,0-18.451-8.228-18.451-18.45s8.229-18.451,18.451-18.451h155.209C192.065,298.808,200.418,307.037,200.418,317.259"/>
			
				<text id="nome_x5F_11_2_" transform="matrix(1 0 0 1 32.4304 323.3652)" fill="#4D4D4D" font-family="'AzoSans-Medium'" font-size="20.2212">José Pedro</text>
			<circle fill="#4D4D4D" cx="184.96" cy="317.259" r="6.607"/>
		</g>
		<g id="erase_x5F_11_2_">
			<ellipse fill="#E02227" cx="8.433" cy="317.463" rx="13.713" ry="13.713"/>
			<g>
				
					<line fill="none" stroke="#FFFFFF" stroke-width="4" stroke-linecap="round" stroke-linejoin="round" stroke-miterlimit="10" x1="3.446" y1="312.522" x2="13.419" y2="322.495"/>
				
					<line fill="none" stroke="#FFFFFF" stroke-width="4" stroke-linecap="round" stroke-linejoin="round" stroke-miterlimit="10" x1="3.446" y1="322.495" x2="13.419" y2="312.522"/>
			</g>
		</g>
	</g>
</g>
<g id="mesa10">
	<polygon fill="#E5E5E5" points="190.739,461.648 195.726,461.648 215.547,447.437 255.192,447.437 255.192,394.578 
		215.547,394.578 195.726,380.242 190.739,380.242 	"/>
	<rect x="215.547" y="394.578" fill="#F3F3F3" width="39.645" height="52.858"/>
	<rect x="190.739" y="380.242" fill="#F3F3F3" width="4.987" height="81.407"/>
	<polygon fill="#E5E5E5" points="195.726,380.242 195.726,461.648 215.547,447.437 215.547,394.578 	"/>
	<g id="adicionar10">
		<path fill="#E02428" d="M255.566,421.008c0,11.095-8.977,20.07-20.071,20.07c-11.096,0-20.071-8.976-20.071-20.07
			c0-11.096,8.976-20.071,20.071-20.071C246.465,400.812,255.566,409.912,255.566,421.008z"/>
		<g>
			
				<line fill="none" stroke="#FFFFFF" stroke-width="4" stroke-linecap="round" stroke-linejoin="round" stroke-miterlimit="10" x1="245.841" y1="421.008" x2="225.022" y2="421.008"/>
			
				<line fill="none" stroke="#FFFFFF" stroke-width="4" stroke-linecap="round" stroke-linejoin="round" stroke-miterlimit="10" x1="235.369" y1="431.354" x2="235.369" y2="410.535"/>
		</g>
	</g>
	<g>
		<g>
			<path fill="#E6E6E6" stroke="#FFFFFF" stroke-miterlimit="10" d="M176.698,421.008c0,10.223-8.228,18.45-18.45,18.45H3.039
				c-10.223,0-18.451-8.228-18.451-18.45s8.229-18.451,18.451-18.451h155.209C168.346,402.557,176.698,410.785,176.698,421.008"/>
			
				<text id="nome_x5F_10" transform="matrix(1 0 0 1 8.7112 427.1133)" fill="#4D4D4D" font-family="'AzoSans-Medium'" font-size="20.2212">José Pedro</text>
			<circle fill="#4D4D4D" cx="161.24" cy="421.008" r="6.607"/>
		</g>
		<g id="erase_x5F_11_1_">
			<ellipse fill="#E02227" cx="-15.286" cy="421.211" rx="13.713" ry="13.713"/>
			<g>
				
					<line fill="none" stroke="#FFFFFF" stroke-width="4" stroke-linecap="round" stroke-linejoin="round" stroke-miterlimit="10" x1="-20.273" y1="416.271" x2="-10.301" y2="426.243"/>
				
					<line fill="none" stroke="#FFFFFF" stroke-width="4" stroke-linecap="round" stroke-linejoin="round" stroke-miterlimit="10" x1="-20.273" y1="426.243" x2="-10.301" y2="416.271"/>
			</g>
		</g>
	</g>
</g>
<g id="mesa9">
	<g>
		<g>
			<path fill="#E6E6E6" stroke="#FFFFFF" stroke-miterlimit="10" d="M205.698,534.703c0,10.223-8.228,18.45-18.45,18.45H32.039
				c-10.223,0-18.451-8.228-18.451-18.45s8.229-18.451,18.451-18.451h155.209C197.346,516.252,205.698,524.48,205.698,534.703"/>
			
				<text id="nome_x5F_9" transform="matrix(1 0 0 1 37.7112 540.8086)" fill="#4D4D4D" font-family="'AzoSans-Medium'" font-size="20.2212">José Pedro</text>
			<circle fill="#4D4D4D" cx="190.24" cy="534.703" r="6.607"/>
		</g>
		<g id="erase_x5F_11">
			<ellipse fill="#E02227" cx="13.714" cy="534.907" rx="13.713" ry="13.713"/>
			<g>
				
					<line fill="none" stroke="#FFFFFF" stroke-width="4" stroke-linecap="round" stroke-linejoin="round" stroke-miterlimit="10" x1="8.727" y1="529.966" x2="18.699" y2="539.938"/>
				
					<line fill="none" stroke="#FFFFFF" stroke-width="4" stroke-linecap="round" stroke-linejoin="round" stroke-miterlimit="10" x1="8.727" y1="539.938" x2="18.699" y2="529.966"/>
			</g>
		</g>
	</g>
	<g>
		<polygon fill="#E5E5E5" points="242.6,562.254 246.839,559.636 256.189,537.071 289.849,516.128 262.048,471.123 228.264,492.067 
			203.953,490.446 199.715,493.064 		"/>
		<polygon fill="#F3F3F3" points="228.264,492.067 256.189,537.071 289.849,516.128 262.048,471.123 		"/>
		<polygon fill="#F3F3F3" points="199.715,493.064 242.6,562.254 246.839,559.636 203.953,490.446 		"/>
		<polygon fill="#E5E5E5" points="203.953,490.446 246.839,559.636 256.189,537.071 228.264,492.067 		"/>
		<g id="adicionar9">
			<path fill="#E02428" d="M279.252,504.035c0,11.095-8.977,20.071-20.071,20.071c-11.096,0-20.071-8.977-20.071-20.071
				c0-11.096,8.976-20.071,20.071-20.071C270.152,483.964,279.252,492.939,279.252,504.035z"/>
			<g>
				
					<line fill="none" stroke="#FFFFFF" stroke-width="4" stroke-linecap="round" stroke-linejoin="round" stroke-miterlimit="10" x1="269.528" y1="504.035" x2="248.708" y2="504.035"/>
				
					<line fill="none" stroke="#FFFFFF" stroke-width="4" stroke-linecap="round" stroke-linejoin="round" stroke-miterlimit="10" x1="259.056" y1="514.507" x2="259.056" y2="493.688"/>
			</g>
		</g>
	</g>
</g>
<g id="mesa8">
	<polygon fill="#E5E5E5" points="333.108,618.354 335.476,613.99 332.36,589.806 351.184,554.774 304.559,529.841 285.735,564.747 
		263.793,575.469 261.425,579.957 	"/>
	<polygon fill="#F3F3F3" points="285.735,564.747 332.36,589.806 351.184,554.774 304.559,529.841 	"/>
	<polygon fill="#F3F3F3" points="261.425,579.957 333.108,618.354 335.476,613.99 263.793,575.469 	"/>
	<polygon fill="#E5E5E5" points="263.793,575.469 335.476,613.99 332.36,589.806 285.735,564.747 	"/>
	<g id="adicionar8">
		<path fill="#E02428" d="M337.969,559.761c0,11.095-8.976,20.071-20.071,20.071c-11.095,0-20.07-8.977-20.07-20.071
			c0-11.096,8.976-20.071,20.07-20.071C328.993,539.689,337.969,548.665,337.969,559.761z"/>
		<g>
			
				<line fill="none" stroke="#FFFFFF" stroke-width="4" stroke-linecap="round" stroke-linejoin="round" stroke-miterlimit="10" x1="328.245" y1="559.761" x2="307.551" y2="559.761"/>
			
				<line fill="none" stroke="#FFFFFF" stroke-width="4" stroke-linecap="round" stroke-linejoin="round" stroke-miterlimit="10" x1="317.898" y1="570.232" x2="317.898" y2="549.413"/>
		</g>
	</g>
	<g>
		<g>
			<path fill="#E6E6E6" stroke="#FFFFFF" stroke-miterlimit="10" d="M278.563,610.717c0,10.223-8.228,18.45-18.451,18.45H104.903
				c-10.223,0-18.451-8.228-18.451-18.45s8.229-18.451,18.451-18.451h155.209C270.21,592.266,278.563,600.494,278.563,610.717"/>
			
				<text id="nome_x5F_8" transform="matrix(1 0 0 1 110.575 616.8223)" fill="#4D4D4D" font-family="'AzoSans-Medium'" font-size="20.2212">José Pedro</text>
			<circle fill="#4D4D4D" cx="263.104" cy="610.717" r="6.607"/>
		</g>
		<g id="erase_x5F_11_4_">
			<ellipse fill="#E02227" cx="86.577" cy="610.92" rx="13.713" ry="13.713"/>
			<g>
				
					<line fill="none" stroke="#FFFFFF" stroke-width="4" stroke-linecap="round" stroke-linejoin="round" stroke-miterlimit="10" x1="81.591" y1="605.979" x2="91.563" y2="615.952"/>
				
					<line fill="none" stroke="#FFFFFF" stroke-width="4" stroke-linecap="round" stroke-linejoin="round" stroke-miterlimit="10" x1="81.591" y1="615.952" x2="91.563" y2="605.979"/>
			</g>
		</g>
	</g>
</g>
<g id="mesa7">
	<polygon fill="#E5E5E5" points="433.713,623.216 433.713,618.229 419.501,598.407 419.501,558.764 366.518,558.764 
		366.518,598.407 352.306,618.229 352.306,623.216 	"/>
	<rect x="366.518" y="558.764" fill="#F3F3F3" width="52.858" height="39.644"/>
	<rect x="352.306" y="618.229" fill="#F3F3F3" width="81.407" height="4.986"/>
	<polygon fill="#E5E5E5" points="352.306,618.229 433.713,618.229 419.501,598.407 366.518,598.407 	"/>
	<g id="adicionar7">
		<path fill="#E02428" d="M412.52,578.585c0,11.096-8.977,20.071-20.071,20.071c-11.096,0-20.071-8.976-20.071-20.071
			c0-11.095,8.976-20.071,20.071-20.071C403.543,558.39,412.52,567.49,412.52,578.585z"/>
		<g>
			
				<line fill="none" stroke="#FFFFFF" stroke-width="4" stroke-linecap="round" stroke-linejoin="round" stroke-miterlimit="10" x1="402.796" y1="578.585" x2="382.101" y2="578.585"/>
			
				<line fill="none" stroke="#FFFFFF" stroke-width="4" stroke-linecap="round" stroke-linejoin="round" stroke-miterlimit="10" x1="392.448" y1="588.933" x2="392.448" y2="568.113"/>
		</g>
	</g>
	<g>
		<g>
			<path fill="#E6E6E6" stroke="#FFFFFF" stroke-miterlimit="10" d="M409.154,661.852c0,10.223-8.229,18.45-18.451,18.45H235.494
				c-10.223,0-18.451-8.228-18.451-18.45s8.229-18.451,18.451-18.451h155.208C400.8,643.4,409.154,651.629,409.154,661.852"/>
			
				<text id="nome_x5F_7" transform="matrix(1 0 0 1 241.1658 667.957)" fill="#4D4D4D" font-family="'AzoSans-Medium'" font-size="20.2212">José Pedro</text>
			<circle fill="#4D4D4D" cx="393.695" cy="661.852" r="6.607"/>
		</g>
		<g id="erase_x5F_11_6_">
			<ellipse fill="#E02227" cx="217.168" cy="662.055" rx="13.713" ry="13.713"/>
			<g>
				
					<line fill="none" stroke="#FFFFFF" stroke-width="4" stroke-linecap="round" stroke-linejoin="round" stroke-miterlimit="10" x1="212.181" y1="657.114" x2="222.154" y2="667.087"/>
				
					<line fill="none" stroke="#FFFFFF" stroke-width="4" stroke-linecap="round" stroke-linejoin="round" stroke-miterlimit="10" x1="212.181" y1="667.087" x2="222.154" y2="657.114"/>
			</g>
		</g>
	</g>
</g>
<g id="mesa6">
	<polygon fill="#E5E5E5" points="534.194,571.105 531.575,566.866 508.887,557.642 487.818,524.106 443.063,552.28 464.131,585.815 
		462.76,610.25 465.378,614.489 	"/>
	<polygon fill="#F3F3F3" points="464.131,585.815 508.887,557.642 487.818,524.106 443.063,552.28 	"/>
	<polygon fill="#F3F3F3" points="465.378,614.489 534.194,571.105 531.575,566.866 462.76,610.25 	"/>
	<polygon fill="#E5E5E5" points="462.76,610.25 531.575,566.866 508.887,557.642 464.131,585.815 	"/>
	<g id="adicionar6">
		<path fill="#E02428" d="M496.046,554.898c0,11.096-8.977,20.071-20.071,20.071c-11.096,0-20.071-8.976-20.071-20.071
			c0-11.095,8.976-20.071,20.071-20.071C487.07,534.827,496.046,543.804,496.046,554.898z"/>
		<g>
			
				<line fill="none" stroke="#FFFFFF" stroke-width="4" stroke-linecap="round" stroke-linejoin="round" stroke-miterlimit="10" x1="486.322" y1="554.898" x2="465.627" y2="554.898"/>
			
				<line fill="none" stroke="#FFFFFF" stroke-width="4" stroke-linecap="round" stroke-linejoin="round" stroke-miterlimit="10" x1="475.975" y1="565.371" x2="475.975" y2="544.552"/>
		</g>
	</g>
	<g>
		<g>
			<path fill="#E6E6E6" stroke="#FFFFFF" stroke-miterlimit="10" d="M506.333,610.717c0-10.223,8.354-18.451,18.451-18.451h155.209
				c10.223,0,18.451,8.229,18.451,18.451s-8.229,18.45-18.451,18.45H524.784C514.562,629.167,506.333,620.939,506.333,610.717"/>
			
				<text id="nome_x5F_6" transform="matrix(1 0 0 1 539.6643 616.8223)" fill="#4D4D4D" font-family="'AzoSans-Medium'" font-size="20.2212">José Pedro</text>
			<circle fill="#4D4D4D" cx="521.792" cy="610.717" r="6.607"/>
		</g>
		<g id="erase_x5F_11_10_">
			<ellipse fill="#E02227" cx="698.319" cy="610.92" rx="13.713" ry="13.713"/>
			<g>
				
					<line fill="none" stroke="#FFFFFF" stroke-width="4" stroke-linecap="round" stroke-linejoin="round" stroke-miterlimit="10" x1="693.333" y1="615.952" x2="703.306" y2="605.979"/>
				
					<line fill="none" stroke="#FFFFFF" stroke-width="4" stroke-linecap="round" stroke-linejoin="round" stroke-miterlimit="10" x1="693.333" y1="605.979" x2="703.306" y2="615.952"/>
			</g>
		</g>
	</g>
</g>
<g id="mesa5">
	<polygon fill="#E5E5E5" points="594.972,480.535 590.609,478.167 566.298,481.283 531.392,462.584 506.334,509.084 
		541.365,527.908 552.087,549.85 556.45,552.219 	"/>
	<polygon fill="#F3F3F3" points="541.365,527.908 566.298,481.283 531.392,462.584 506.334,509.084 	"/>
	<polygon fill="#F3F3F3" points="556.45,552.219 594.972,480.535 590.609,478.167 552.087,549.85 	"/>
	<polygon fill="#E5E5E5" points="552.087,549.85 590.609,478.167 566.298,481.283 541.365,527.908 	"/>
	<g id="adicionar5">
		<path fill="#E02428" d="M555.328,495.246c0,11.096-8.977,20.071-20.071,20.071c-11.096,0-20.071-8.976-20.071-20.071
			c0-11.095,8.976-20.071,20.071-20.071C546.352,475.05,555.328,484.151,555.328,495.246z"/>
		<g>
			
				<line fill="none" stroke="#FFFFFF" stroke-width="4" stroke-linecap="round" stroke-linejoin="round" stroke-miterlimit="10" x1="545.604" y1="495.246" x2="524.909" y2="495.246"/>
			
				<line fill="none" stroke="#FFFFFF" stroke-width="4" stroke-linecap="round" stroke-linejoin="round" stroke-miterlimit="10" x1="535.257" y1="505.594" x2="535.257" y2="484.898"/>
		</g>
	</g>
	<g>
		<g>
			<path fill="#E6E6E6" stroke="#FFFFFF" stroke-miterlimit="10" d="M583.752,534.392c0-10.223,8.353-18.451,18.45-18.451h155.209
				c10.223,0,18.451,8.229,18.451,18.451s-8.229,18.45-18.451,18.45H602.202C591.98,552.842,583.752,544.614,583.752,534.392"/>
			
				<text id="nome_x5F_5" transform="matrix(1 0 0 1 615.7532 540.4971)" fill="#4D4D4D" font-family="'AzoSans-Medium'" font-size="20.2212">José Pedro</text>
			<circle fill="#4D4D4D" cx="599.21" cy="534.392" r="6.607"/>
		</g>
		<g id="erase_x5F_11_11_">
			<ellipse fill="#E02227" cx="775.737" cy="534.595" rx="13.713" ry="13.713"/>
			<g>
				
					<line fill="none" stroke="#FFFFFF" stroke-width="4" stroke-linecap="round" stroke-linejoin="round" stroke-miterlimit="10" x1="770.751" y1="539.627" x2="780.724" y2="529.654"/>
				
					<line fill="none" stroke="#FFFFFF" stroke-width="4" stroke-linecap="round" stroke-linejoin="round" stroke-miterlimit="10" x1="770.751" y1="529.654" x2="780.724" y2="539.627"/>
			</g>
		</g>
	</g>
</g>
<g id="mesa4">
	<polygon fill="#E5E5E5" points="595.28,380.242 590.293,380.242 570.347,394.578 530.703,394.578 530.703,447.437 570.347,447.437 
		590.293,461.648 595.28,461.648 	"/>
	<rect x="530.703" y="394.578" fill="#F3F3F3" width="39.644" height="52.858"/>
	<rect x="590.293" y="380.242" fill="#F3F3F3" width="4.986" height="81.282"/>
	<polygon fill="#E5E5E5" points="590.293,461.648 590.293,380.242 570.347,394.578 570.347,447.437 	"/>
	<g id="adicionar4">
		<circle fill="#E02428" cx="550.525" cy="421.007" r="20.071"/>
		<g>
			
				<line fill="none" stroke="#FFFFFF" stroke-width="4" stroke-linecap="round" stroke-linejoin="round" stroke-miterlimit="10" x1="560.997" y1="421.008" x2="540.178" y2="421.008"/>
			
				<line fill="none" stroke="#FFFFFF" stroke-width="4" stroke-linecap="round" stroke-linejoin="round" stroke-miterlimit="10" x1="550.525" y1="431.354" x2="550.525" y2="410.535"/>
		</g>
	</g>
	<g>
		<g>
			<path fill="#E6E6E6" stroke="#FFFFFF" stroke-miterlimit="10" d="M608.198,421.008c0-10.223,8.353-18.451,18.45-18.451h155.209
				c10.223,0,18.451,8.229,18.451,18.451s-8.229,18.45-18.451,18.45H626.649C616.426,439.458,608.198,431.23,608.198,421.008"/>
			
				<text id="nome_x5F_4" transform="matrix(1 0 0 1 639.6663 427.1133)" fill="#4D4D4D" font-family="'AzoSans-Medium'" font-size="20.2212">José Pedro</text>
			<circle fill="#4D4D4D" cx="623.656" cy="421.008" r="6.607"/>
		</g>
		<g id="erase_x5F_11_9_">
			<ellipse fill="#E02227" cx="800.183" cy="421.211" rx="13.713" ry="13.713"/>
			<g>
				
					<line fill="none" stroke="#FFFFFF" stroke-width="4" stroke-linecap="round" stroke-linejoin="round" stroke-miterlimit="10" x1="795.198" y1="426.243" x2="805.17" y2="416.271"/>
				
					<line fill="none" stroke="#FFFFFF" stroke-width="4" stroke-linecap="round" stroke-linejoin="round" stroke-miterlimit="10" x1="795.198" y1="416.271" x2="805.17" y2="426.243"/>
			</g>
		</g>
	</g>
</g>
<g id="mesa3">
	<polygon fill="#E5E5E5" points="543.419,279.761 539.18,282.379 529.83,304.943 496.046,325.887 523.971,370.767 557.631,349.823 
		582.066,351.568 586.304,348.826 	"/>
	<polygon fill="#F3F3F3" points="557.631,349.823 529.83,304.943 496.046,325.887 523.971,370.767 	"/>
	<polygon fill="#F3F3F3" points="586.304,348.826 543.419,279.761 539.18,282.379 582.066,351.568 	"/>
	<polygon fill="#E5E5E5" points="582.066,351.568 539.18,282.379 529.83,304.943 557.631,349.823 	"/>
	<g id="adicionar3">
		<circle fill="#E02428" cx="529.83" cy="337.855" r="20.071"/>
		<g>
			
				<line fill="none" stroke="#FFFFFF" stroke-width="4" stroke-linecap="round" stroke-linejoin="round" stroke-miterlimit="10" x1="540.178" y1="337.855" x2="519.359" y2="337.855"/>
			
				<line fill="none" stroke="#FFFFFF" stroke-width="4" stroke-linecap="round" stroke-linejoin="round" stroke-miterlimit="10" x1="529.83" y1="348.203" x2="529.83" y2="327.508"/>
		</g>
	</g>
	<g>
		<g>
			<path fill="#E6E6E6" stroke="#FFFFFF" stroke-miterlimit="10" d="M584.48,317.259c0-10.223,8.352-18.451,18.449-18.451h155.209
				c10.223,0,18.451,8.229,18.451,18.451s-8.229,18.45-18.451,18.45H602.929C592.706,335.709,584.48,327.482,584.48,317.259"/>
			
				<text id="nome_x5F_3" transform="matrix(1 0 0 1 618.093 323.3652)" fill="#4D4D4D" font-family="'AzoSans-Medium'" font-size="20.2212">José Pedro</text>
			<circle fill="#4D4D4D" cx="599.937" cy="317.259" r="6.607"/>
		</g>
		<g id="erase_x5F_11_8_">
			<ellipse fill="#E02227" cx="776.464" cy="317.463" rx="13.714" ry="13.714"/>
			<g>
				
					<line fill="none" stroke="#FFFFFF" stroke-width="4" stroke-linecap="round" stroke-linejoin="round" stroke-miterlimit="10" x1="771.478" y1="322.495" x2="781.45" y2="312.522"/>
				
					<line fill="none" stroke="#FFFFFF" stroke-width="4" stroke-linecap="round" stroke-linejoin="round" stroke-miterlimit="10" x1="771.478" y1="312.522" x2="781.45" y2="322.495"/>
			</g>
		</g>
	</g>
</g>
<g id="mesa2">
	<polygon fill="#E5E5E5" points="452.911,223.537 450.543,227.9 453.659,252.209 434.835,287.116 481.46,312.174 500.284,277.143 
		522.226,266.421 524.594,262.058 	"/>
	<polygon fill="#F3F3F3" points="500.284,277.143 453.659,252.209 434.835,287.116 481.46,312.174 	"/>
	<polygon fill="#F3F3F3" points="524.594,262.058 452.911,223.537 450.543,227.9 522.226,266.421 	"/>
	<polygon fill="#E5E5E5" points="522.226,266.421 450.543,227.9 453.659,252.209 500.284,277.143 	"/>
	<g id="adicionar2">
		<circle fill="#E02428" cx="468.744" cy="279.387" r="20.071"/>
		<g>
			
				<line fill="none" stroke="#FFFFFF" stroke-width="4" stroke-linecap="round" stroke-linejoin="round" stroke-miterlimit="10" x1="479.216" y1="279.387" x2="458.397" y2="279.387"/>
			
				<line fill="none" stroke="#FFFFFF" stroke-width="4" stroke-linecap="round" stroke-linejoin="round" stroke-miterlimit="10" x1="468.744" y1="289.734" x2="468.744" y2="269.04"/>
		</g>
	</g>
	<g>
		<g>
			<path fill="#E6E6E6" stroke="#FFFFFF" stroke-miterlimit="10" d="M499.192,227.651c0-10.223,8.353-18.451,18.45-18.451h155.209
				c10.223,0,18.451,8.229,18.451,18.451s-8.229,18.45-18.451,18.45H517.642C507.419,246.101,499.192,237.874,499.192,227.651"/>
			
				<text id="nome_x5F_2" transform="matrix(1 0 0 1 537.178 234.7573)" fill="#4D4D4D" font-family="'AzoSans-Medium'" font-size="20.2212">José Pedro</text>
			<circle fill="#4D4D4D" cx="514.65" cy="227.651" r="6.607"/>
		</g>
		<g id="erase_x5F_11_7_">
			<ellipse fill="#E02227" cx="691.177" cy="227.854" rx="13.713" ry="13.713"/>
			<g>
				
					<line fill="none" stroke="#FFFFFF" stroke-width="4" stroke-linecap="round" stroke-linejoin="round" stroke-miterlimit="10" x1="686.191" y1="232.886" x2="696.163" y2="222.914"/>
				
					<line fill="none" stroke="#FFFFFF" stroke-width="4" stroke-linecap="round" stroke-linejoin="round" stroke-miterlimit="10" x1="686.191" y1="222.914" x2="696.163" y2="232.886"/>
			</g>
		</g>
	</g>
</g>
<g id="mesa1">
	<polygon fill="#E5E5E5" points="352.306,218.674 352.306,223.661 366.518,243.607 366.518,283.251 419.501,283.251 
		419.501,243.607 433.713,223.661 433.713,218.674 	"/>
	<rect x="366.518" y="243.607" fill="#F3F3F3" width="52.858" height="39.644"/>
	<rect x="352.306" y="218.674" fill="#F3F3F3" width="81.407" height="4.987"/>
	<polygon fill="#E5E5E5" points="433.713,223.661 352.306,223.661 366.518,243.607 419.501,243.607 	"/>
	<g id="adicionar1">
		<circle fill="#E02428" cx="393.571" cy="260.562" r="20.071"/>
		<g>
			
				<line fill="none" stroke="#FFFFFF" stroke-width="4" stroke-linecap="round" stroke-linejoin="round" stroke-miterlimit="10" x1="403.917" y1="260.562" x2="383.223" y2="260.562"/>
			
				<line fill="none" stroke="#FFFFFF" stroke-width="4" stroke-linecap="round" stroke-linejoin="round" stroke-miterlimit="10" x1="393.571" y1="270.91" x2="393.571" y2="250.215"/>
		</g>
	</g>
	<g>
		<g>
			<path fill="#E6E6E6" stroke="#FFFFFF" stroke-miterlimit="10" d="M414.771,184.903c0,10.223-8.228,18.45-18.45,18.45h-155.21
				c-10.223,0-18.451-8.228-18.451-18.45s8.229-18.451,18.451-18.451h155.21C406.418,166.452,414.771,174.681,414.771,184.903"/>
			
				<text id="nome_x5F_1" transform="matrix(1 0 0 1 246.7834 191.0098)" fill="#4D4D4D" font-family="'AzoSans-Medium'" font-size="20.2212">José Pedro</text>
			<circle fill="#4D4D4D" cx="399.313" cy="184.903" r="6.607"/>
		</g>
		<g id="erase_x5F_11_5_">
			<ellipse fill="#E02227" cx="222.785" cy="185.107" rx="13.713" ry="13.713"/>
			<g>
				
					<line fill="none" stroke="#FFFFFF" stroke-width="4" stroke-linecap="round" stroke-linejoin="round" stroke-miterlimit="10" x1="217.798" y1="180.166" x2="227.771" y2="190.139"/>
				
					<line fill="none" stroke="#FFFFFF" stroke-width="4" stroke-linecap="round" stroke-linejoin="round" stroke-miterlimit="10" x1="217.798" y1="190.139" x2="227.771" y2="180.166"/>
			</g>
		</g>
	</g>
</g>
<g id="bolavermelha">
	<path fill="#E02528" d="M506.767,421.008c0-62.832-50.988-113.696-113.695-113.696c-62.831,0-113.819,50.864-113.819,113.696
		c0,62.831,50.988,113.695,113.819,113.695C455.779,534.703,506.767,483.715,506.767,421.008z"/>
	<path fill="#E02528" d="M506.767,421.008c0-62.832-50.988-113.696-113.695-113.696c-62.831,0-113.819,50.864-113.819,113.696
		c0,62.831,50.988,113.695,113.819,113.695C455.779,534.703,506.767,483.715,506.767,421.008z"/>
	<path fill="#E02528" d="M506.767,421.008c0-62.832-50.988-113.696-113.695-113.696c-62.831,0-113.819,50.864-113.819,113.696
		c0,62.831,50.988,113.695,113.819,113.695C455.779,534.703,506.767,483.715,506.767,421.008z"/>
</g>
</svg>
