<?xml version="1.0" encoding="utf-8"?>

<!DOCTYPE svg PUBLIC "-//W3C//DTD SVG 1.1//EN" "http://www.w3.org/Graphics/SVG/1.1/DTD/svg11.dtd">
<svg version="1.1" xmlns="http://www.w3.org/2000/svg" xmlns:xlink="http://www.w3.org/1999/xlink" x="0px" y="0px"
	 width="356.962px" height="354.43px" viewBox="0 0 356.962 354.43" enable-background="new 0 0 356.962 354.43"
	 xml:space="preserve">
<g id="brancas">
	<g id="mesa10" class="cadeira">
		<polygon fill="#E5E5E5" class="cor1" points="58.657,63.898 61.028,67.167 79.608,73.329 98.317,99.081 132.651,74.136 113.94,48.385 
			113.835,28.801 111.462,25.535 		"/>
		
			<rect x="84.91" y="57.818" transform="matrix(0.809 -0.5878 0.5878 0.809 -23.0704 76.4617)" fill="#F3F3F3" class="cor2" width="42.437" height="31.831"/>
		
			<rect x="53.61" y="44.332" transform="matrix(0.809 -0.5878 0.5878 0.809 -10.7732 59.543)" fill="#F3F3F3" class="cor2" width="65.27" height="4.038"/>
		<polygon fill="#E5E5E5" class="cor1" points="113.835,28.801 61.028,67.167 79.608,73.329 113.94,48.385 		"/>
		<g id="adicionar10" class="button_cadeira">
			<circle fill="#E02729" cx="106.41" cy="73.591" r="16.136"/>
			<g>
				
					<line fill="none" stroke="#FFFFFF" stroke-width="4" stroke-linecap="round" stroke-linejoin="round" stroke-miterlimit="10" x1="114.735" y1="73.593" x2="98.086" y2="73.593"/>
				
					<line fill="none" stroke="#FFFFFF" stroke-width="4" stroke-linecap="round" stroke-linejoin="round" stroke-miterlimit="10" x1="106.409" y1="81.917" x2="106.409" y2="65.268"/>
			</g>
		</g>
	</g>
	<g id="mesa9" class="cadeira">
		<polygon fill="#E5E5E5" class="cor1" points="16.022,156.893 19.862,158.143 38.516,152.208 68.788,162.044 81.903,121.683 51.629,111.848 
			40.034,96.066 36.194,94.818 		"/>
		
			<rect x="38.99" y="121.031" transform="matrix(0.309 -0.9511 0.9511 0.309 -88.6405 151.8902)" fill="#F3F3F3" class="cor2" width="42.436" height="31.83"/>
		
			<rect x="-4.607" y="124.461" transform="matrix(0.3091 -0.951 0.951 0.3091 -100.9229 114.0474)" fill="#F3F3F3" class="cor2" width="65.27" height="4.038"/>
		<polygon fill="#E5E5E5" class="cor1" points="40.034,96.066 19.862,158.143 38.516,152.208 51.629,111.848 		"/>
		<g id="adicionar9" class="button_cadeira">
			<circle fill="#E02729" cx="60.49" cy="136.804" r="16.136"/>
			<g>
				
					<line fill="none" stroke="#FFFFFF" stroke-width="4" stroke-linecap="round" stroke-linejoin="round" stroke-miterlimit="10" x1="68.815" y1="136.807" x2="52.166" y2="136.807"/>
				
					<line fill="none" stroke="#FFFFFF" stroke-width="4" stroke-linecap="round" stroke-linejoin="round" stroke-miterlimit="10" x1="60.489" y1="145.13" x2="60.489" y2="128.481"/>
			</g>
		</g>
	</g>
	<g id="mesa8" class="cadeira">
		<polygon fill="#E5E5E5" class="cor1" points="36.185,257.177 40.027,255.931 51.629,240.165 81.902,230.329 68.789,189.967 38.516,199.805 
			19.858,193.852 16.018,195.1 		"/>
		
			<rect x="38.991" y="199.152" transform="matrix(-0.309 -0.9511 0.9511 -0.309 -125.7269 338.7872)" fill="#F3F3F3" class="cor2" width="42.436" height="31.83"/>
		
			<rect x="-4.613" y="223.496" transform="matrix(-0.309 -0.9511 0.9511 -0.309 -177.8006 321.8455)" fill="#F3F3F3" class="cor2" width="65.271" height="4.039"/>
		<polygon fill="#E5E5E5" class="cor1" points="19.858,193.852 40.027,255.931 51.629,240.165 38.516,199.805 		"/>
		<g id="adicionar8" class="button_cadeira">
			<circle fill="#E02729" cx="60.489" cy="214.924" r="16.136"/>
			<g>
				
					<line fill="none" stroke="#FFFFFF" stroke-width="4" stroke-linecap="round" stroke-linejoin="round" stroke-miterlimit="10" x1="68.814" y1="214.926" x2="52.166" y2="214.926"/>
				
					<line fill="none" stroke="#FFFFFF" stroke-width="4" stroke-linecap="round" stroke-linejoin="round" stroke-miterlimit="10" x1="60.488" y1="223.25" x2="60.488" y2="206.601"/>
			</g>
		</g>
	</g>
	<g id="mesa7" class="cadeira">
		<polygon fill="#E5E5E5" class="cor1" points="111.455,326.456 113.83,323.19 113.949,303.614 132.659,277.864 98.326,252.918 79.618,278.67 
			61.023,284.823 58.65,288.088 		"/>
		
			<rect x="84.92" y="262.352" transform="matrix(-0.809 -0.5878 0.5878 -0.809 28.4424 565.7758)" fill="#F3F3F3" class="cor2" width="42.436" height="31.83"/>
		
			<rect x="53.604" y="303.62" transform="matrix(-0.809 -0.5878 0.5878 -0.809 -23.6497 603.5937)" fill="#F3F3F3" class="cor2" width="65.272" height="4.038"/>
		<polygon fill="#E5E5E5" class="cor1" points="61.023,284.823 113.83,323.19 113.949,303.614 79.618,278.67 		"/>
		<g id="adicionar7" class="button_cadeira">
			<circle fill="#E02729" cx="106.418" cy="278.125" r="16.136"/>
			<g>
				
					<line fill="none" stroke="#FFFFFF" stroke-width="4" stroke-linecap="round" stroke-linejoin="round" stroke-miterlimit="10" x1="114.744" y1="278.126" x2="98.095" y2="278.126"/>
				
					<line fill="none" stroke="#FFFFFF" stroke-width="4" stroke-linecap="round" stroke-linejoin="round" stroke-miterlimit="10" x1="106.417" y1="286.45" x2="106.417" y2="269.801"/>
			</g>
		</g>
	</g>
	<g id="mesa6" class="cadeira">
		<polygon fill="#E5E5E5" class="cor1" points="213.069,338.27 213.069,334.234 201.661,318.326 201.661,286.496 159.223,286.496 
			159.223,318.326 147.797,334.234 147.797,338.27 		"/>
		<rect x="159.223" y="286.496" fill="#F3F3F3" class="cor2" width="42.438" height="31.83"/>
		<rect x="147.797" y="334.234" fill="#F3F3F3" class="cor2" width="65.271" height="4.036"/>
		<g id="adicionar6" class="button_cadeira">
			<circle fill="#E02729" cx="180.722" cy="302.269" r="16.136"/>
			<g>
				
					<line fill="none" stroke="#FFFFFF" stroke-width="4" stroke-linecap="round" stroke-linejoin="round" stroke-miterlimit="10" x1="189.047" y1="302.271" x2="172.398" y2="302.271"/>
				
					<line fill="none" stroke="#FFFFFF" stroke-width="4" stroke-linecap="round" stroke-linejoin="round" stroke-miterlimit="10" x1="180.721" y1="310.594" x2="180.721" y2="293.946"/>
			</g>
		</g>
	</g>
	<g id="mesa5" class="cadeira">
		<polygon fill="#E5E5E5" class="cor1" points="302.209,288.098 299.838,284.833 281.258,278.668 262.549,252.917 228.215,277.862 
			246.926,303.612 247.032,323.198 249.405,326.463 		"/>
		
			<rect x="233.52" y="262.349" transform="matrix(-0.809 0.5878 -0.5878 -0.809 624.3841 353.6557)" fill="#F3F3F3" class="cor2" width="42.437" height="31.831"/>
		
			<rect x="241.986" y="303.63" transform="matrix(-0.809 0.5878 -0.5878 -0.809 676.4509 391.502)" fill="#F3F3F3" class="cor2" width="65.27" height="4.036"/>
		<polygon fill="#E5E5E5" class="cor1" points="247.032,323.198 299.838,284.833 281.258,278.668 246.926,303.612 		"/>
		<g id="adicionar5" class="button_cadeira">
			<circle fill="#E02729" cx="255.017" cy="278.123" r="16.136"/>
			<g>
				
					<line fill="none" stroke="#FFFFFF" stroke-width="4" stroke-linecap="round" stroke-linejoin="round" stroke-miterlimit="10" x1="263.342" y1="278.125" x2="246.694" y2="278.125"/>
				
					<line fill="none" stroke="#FFFFFF" stroke-width="4" stroke-linecap="round" stroke-linejoin="round" stroke-miterlimit="10" x1="255.016" y1="286.448" x2="255.016" y2="269.799"/>
			</g>
		</g>
	</g>
	<g id="mesa4" class="cadeira">
		<polygon fill="#E5E5E5" class="cor1" points="344.843,195.104 341.005,193.856 322.351,199.79 292.078,189.954 278.964,230.315 309.237,240.15 
			320.834,255.932 324.673,257.18 		"/>
		
			<rect x="279.438" y="199.136" transform="matrix(-0.309 0.9511 -0.9511 -0.309 598.0937 -4.433)" fill="#F3F3F3" class="cor2" width="42.438" height="31.831"/>
		
			<rect x="300.204" y="223.5" transform="matrix(-0.309 0.9511 -0.9511 -0.309 650.1733 -21.3413)" fill="#F3F3F3" class="cor2" width="65.271" height="4.036"/>
		<polygon fill="#E5E5E5" class="cor1" points="320.834,255.932 341.005,193.856 322.351,199.79 309.237,240.15 		"/>
		<g id="adicionar4" class="button_cadeira">
			<circle fill="#E02729" cx="300.938" cy="214.91" r="16.136"/>
			<g>
				
					<line fill="none" stroke="#FFFFFF" stroke-width="4" stroke-linecap="round" stroke-linejoin="round" stroke-miterlimit="10" x1="309.263" y1="214.912" x2="292.614" y2="214.912"/>
				
					<line fill="none" stroke="#FFFFFF" stroke-width="4" stroke-linecap="round" stroke-linejoin="round" stroke-miterlimit="10" x1="300.937" y1="223.235" x2="300.937" y2="206.586"/>
			</g>
		</g>
	</g>
	<g id="mesa3" class="cadeira">
		<polygon fill="#E5E5E5" class="cor1" points="324.68,94.821 320.841,96.067 309.238,111.833 278.964,121.668 292.08,162.03 322.351,152.192 
			341.01,158.144 344.85,156.897 		"/>
		
			<rect x="279.44" y="121.015" transform="matrix(0.309 0.9511 -0.9511 0.309 337.9797 -191.3258)" fill="#F3F3F3" class="cor2" width="42.436" height="31.831"/>
		
			<rect x="300.21" y="124.464" transform="matrix(0.309 0.9511 -0.9511 0.309 350.2814 -229.1582)" fill="#F3F3F3" class="cor2" width="65.271" height="4.036"/>
		<polygon fill="#E5E5E5" class="cor1" points="341.01,158.144 320.841,96.067 309.238,111.833 322.351,152.192 		"/>
		<g id="adicionar3" class="button_cadeira">
			<circle fill="#E02729" cx="300.938" cy="136.789" r="16.136"/>
			<g>
				
					<line fill="none" stroke="#FFFFFF" stroke-width="4" stroke-linecap="round" stroke-linejoin="round" stroke-miterlimit="10" x1="309.263" y1="136.792" x2="292.614" y2="136.792"/>
				
					<line fill="none" stroke="#FFFFFF" stroke-width="4" stroke-linecap="round" stroke-linejoin="round" stroke-miterlimit="10" x1="300.937" y1="145.115" x2="300.937" y2="128.466"/>
			</g>
		</g>
	</g>
	<g id="mesa2" class="cadeira">
		<polygon fill="#E5E5E5" class="cor1" points="249.413,25.543 247.038,28.807 246.918,48.383 228.208,74.134 262.542,99.079 281.249,73.327 
			299.844,67.174 302.217,63.909 		"/>
		
			<rect x="233.511" y="57.815" transform="matrix(0.809 0.5878 -0.5878 0.809 91.9908 -135.6475)" fill="#F3F3F3" class="cor2" width="42.435" height="31.831"/>
		
			<rect x="241.992" y="44.34" transform="matrix(0.809 0.5878 -0.5878 0.809 79.6986 -152.5693)" fill="#F3F3F3" class="cor2" width="65.27" height="4.036"/>
		<polygon fill="#E5E5E5" class="cor1" points="299.844,67.174 247.038,28.807 246.918,48.383 281.249,73.327 		"/>
		<g id="adicionar2" class="button_cadeira">
			<circle fill="#E02729" cx="255.008" cy="73.589" r="16.136"/>
			<g>
				
					<line fill="none" stroke="#FFFFFF" stroke-width="4" stroke-linecap="round" stroke-linejoin="round" stroke-miterlimit="10" x1="263.333" y1="73.591" x2="246.684" y2="73.591"/>
				
					<line fill="none" stroke="#FFFFFF" stroke-width="4" stroke-linecap="round" stroke-linejoin="round" stroke-miterlimit="10" x1="255.007" y1="81.915" x2="255.007" y2="65.266"/>
			</g>
		</g>
	</g>
	<g id="mesa1" class="cadeira">
		<polygon fill="#E5E5E5" class="cor1" points="147.8,13.727 147.797,17.764 159.207,33.671 159.206,65.502 201.644,65.502 201.643,33.672 
			213.07,17.766 213.07,13.728 		"/>
		<rect x="159.206" y="33.672" fill="#F3F3F3" class="cor2" width="42.437" height="31.831"/>
		<rect x="147.799" y="13.728" fill="#F3F3F3" class="cor2" width="65.27" height="4.037"/>
		<polygon fill="#E5E5E5" class="cor1" points="213.07,17.766 147.797,17.764 159.207,33.671 201.643,33.672 		"/>
		<g id="adicionar1" class="button_cadeira">
			<circle fill="#E02729" cx="180.713" cy="51.065" r="16.136"/>
			<g>
				
					<line fill="none" stroke="#FFFFFF" stroke-width="4" stroke-linecap="round" stroke-linejoin="round" stroke-miterlimit="10" x1="189.039" y1="51.067" x2="172.39" y2="51.067"/>
				
					<line fill="none" stroke="#FFFFFF" stroke-width="4" stroke-linecap="round" stroke-linejoin="round" stroke-miterlimit="10" x1="180.712" y1="59.39" x2="180.712" y2="42.742"/>
			</g>
		</g>
	</g>
</g>
<g id="bolavermelha">
	<path fill="#E02528" d="M271.682,175.998c0-50.392-40.861-91.216-91.238-91.216c-50.393,0-91.26,40.824-91.26,91.216
		s40.867,91.241,91.26,91.241C230.821,267.239,271.682,226.389,271.682,175.998z"/>
</g>
</svg>
