<?xml version="1.0" encoding="utf-8"?>
<!-- Generator: Adobe Illustrator 16.0.4, SVG Export Plug-In . SVG Version: 6.00 Build 0)  -->
<!DOCTYPE svg PUBLIC "-//W3C//DTD SVG 1.1//EN" "http://www.w3.org/Graphics/SVG/1.1/DTD/svg11.dtd">
<svg version="1.1" id="Layer_1" xmlns="http://www.w3.org/2000/svg" xmlns:xlink="http://www.w3.org/1999/xlink" x="0px" y="0px"
	 width="2003px" height="5.585px" viewBox="0 0 2003 5.585" enable-background="new 0 0 2003 5.585" xml:space="preserve">
<linearGradient id="SVGID_1_" gradientUnits="userSpaceOnUse" x1="2241.457" y1="894.4272" x2="2943.9043" y2="894.4272" gradientTransform="matrix(-2.8594 0 0 1 8415.0098 -892.9268)">
	<stop  offset="0" style="stop-color:#FFF23A"/>
	<stop  offset="0.0401" style="stop-color:#FEE62D"/>
	<stop  offset="0.1171" style="stop-color:#FED41A"/>
	<stop  offset="0.1964" style="stop-color:#FDC90F"/>
	<stop  offset="0.2809" style="stop-color:#FDC60B"/>
	<stop  offset="0.6685" style="stop-color:#F28F3F"/>
	<stop  offset="0.8876" style="stop-color:#ED693C"/>
	<stop  offset="1" style="stop-color:#E83E39"/>
</linearGradient>
<line fill="none" stroke="url(#SVGID_1_)" stroke-width="3" stroke-linecap="round" stroke-miterlimit="10" x1="2001.5" y1="1.5" x2="1.5" y2="1.5"/>
</svg>
