<?xml version="1.0" encoding="utf-8"?>
<!-- Generator: Adobe Illustrator 16.0.4, SVG Export Plug-In . SVG Version: 6.00 Build 0)  -->
<!DOCTYPE svg PUBLIC "-//W3C//DTD SVG 1.1//EN" "http://www.w3.org/Graphics/SVG/1.1/DTD/svg11.dtd">
<svg version="1.1" id="Layer_1" xmlns="http://www.w3.org/2000/svg" xmlns:xlink="http://www.w3.org/1999/xlink" x="0px" y="0px"
	 width="19.636px" height="25.252px" viewBox="0 0 19.636 25.252" enable-background="new 0 0 19.636 25.252" xml:space="preserve">
<path fill-rule="evenodd" clip-rule="evenodd" fill="#B0B0B0" d="M8.084,16.727c-0.069,0.332-0.118,0.613-0.187,0.891
	c-0.243,0.99-0.475,1.986-0.741,2.971c-0.286,1.059-0.726,2.053-1.323,2.973c-0.387,0.594-0.849,1.121-1.4,1.566
	c-0.057,0.045-0.126,0.076-0.212,0.125c-0.039-0.207-0.084-0.379-0.102-0.553c-0.129-1.266-0.128-2.535,0.005-3.799
	c0.063-0.6,0.17-1.197,0.292-1.791c0.211-1.025,0.435-2.047,0.682-3.061c0.214-0.881,0.477-1.75,0.704-2.626
	c0.125-0.487,0.226-0.982,0.33-1.476c0.011-0.05-0.027-0.114-0.054-0.166C5.53,10.645,5.487,9.475,5.799,8.266
	C5.987,7.54,6.275,6.877,6.791,6.328c0.834-0.885,1.976-1.025,2.992-0.368c0.431,0.278,0.658,0.701,0.716,1.196
	c0.09,0.761-0.065,1.498-0.284,2.226c-0.235,0.776-0.482,1.551-0.691,2.336c-0.15,0.568-0.28,1.146-0.357,1.727
	c-0.175,1.304,0.44,2.148,1.804,2.341c1.646,0.232,2.771-0.559,3.658-1.832c0.574-0.824,0.938-1.744,1.181-2.708
	c0.359-1.426,0.441-2.876,0.189-4.326c-0.163-0.938-0.47-1.835-1.105-2.572c-0.767-0.889-1.73-1.478-2.858-1.807
	c-0.953-0.278-1.921-0.312-2.888-0.151C7.793,2.615,6.575,3.166,5.501,4.027C4.665,4.7,3.987,5.506,3.508,6.471
	C3.014,7.47,2.817,8.525,2.832,9.642c0.014,0.959,0.404,1.752,0.882,2.532c0.488,0.796,0.325,1.574-0.091,2.333
	c-0.03,0.055-0.161,0.102-0.229,0.084c-1.446-0.367-2.491-1.202-2.988-2.644C-0.01,10.745-0.067,9.508,0.06,8.249
	c0.089-0.884,0.313-1.721,0.663-2.531C1.224,4.554,1.96,3.563,2.884,2.705c0.887-0.825,1.897-1.467,3.014-1.928
	c0.919-0.38,1.874-0.651,2.875-0.703c0.575-0.028,1.151-0.093,1.723-0.068c1.262,0.055,2.495,0.26,3.689,0.705
	c1.473,0.55,2.744,1.375,3.749,2.59c0.638,0.772,1.077,1.649,1.364,2.61c0.345,1.151,0.364,2.33,0.321,3.514
	c-0.052,1.441-0.384,2.816-0.96,4.143c-0.519,1.197-1.229,2.246-2.2,3.119c-0.76,0.684-1.631,1.188-2.61,1.449
	c-1.126,0.299-2.286,0.402-3.404-0.002c-0.556-0.201-1.053-0.568-1.568-0.873C8.62,17.107,8.381,16.926,8.084,16.727z"/>
</svg>
