<?xml version="1.0" encoding="utf-8"?>
<!-- Generator: Adobe Illustrator 16.0.4, SVG Export Plug-In . SVG Version: 6.00 Build 0)  -->
<!DOCTYPE svg PUBLIC "-//W3C//DTD SVG 1.1//EN" "http://www.w3.org/Graphics/SVG/1.1/DTD/svg11.dtd">
<svg version="1.1" id="Layer_1" xmlns="http://www.w3.org/2000/svg" xmlns:xlink="http://www.w3.org/1999/xlink" x="0px" y="0px"
	 width="24px" height="24px" viewBox="0 0 24 24" enable-background="new 0 0 24 24" xml:space="preserve">
<path fill="#E4E4E3" d="M2.98-0.059h17.975c1.707,0,3.104,1.396,3.104,3.104V21.02c0,1.707-1.396,3.104-3.104,3.104H2.98
	c-1.707,0-3.104-1.396-3.104-3.104V3.045C-0.123,1.337,1.273-0.059,2.98-0.059L2.98-0.059z M17.492,2.627
	c-0.6,0-1.09,0.49-1.09,1.089v2.606c0,0.599,0.49,1.088,1.09,1.088h2.732c0.6,0,1.09-0.49,1.09-1.088V3.716
	c0-0.599-0.49-1.089-1.09-1.089H17.492L17.492,2.627z M21.325,10.167h-2.13c0.203,0.658,0.312,1.354,0.312,2.075
	c0,4.021-3.364,7.281-7.517,7.281c-4.151,0-7.516-3.26-7.516-7.281c0-0.722,0.108-1.417,0.31-2.075H2.563v10.215
	c0,0.528,0.433,0.962,0.961,0.962h16.839c0.527,0,0.961-0.434,0.961-0.962L21.325,10.167L21.325,10.167z M11.99,7.273
	c-2.682,0-4.856,2.107-4.856,4.706s2.175,4.707,4.856,4.707c2.683,0,4.857-2.106,4.857-4.707C16.848,9.38,14.673,7.273,11.99,7.273z
	"/>
</svg>
