<?xml version="1.0" encoding="utf-8"?>
<!-- Generator: Adobe Illustrator 16.0.4, SVG Export Plug-In . SVG Version: 6.00 Build 0)  -->
<!DOCTYPE svg PUBLIC "-//W3C//DTD SVG 1.1//EN" "http://www.w3.org/Graphics/SVG/1.1/DTD/svg11.dtd">
<svg version="1.1" id="Icons" xmlns="http://www.w3.org/2000/svg" xmlns:xlink="http://www.w3.org/1999/xlink" x="0px" y="0px"
	 width="264.085px" height="67px" viewBox="0 0 264.085 67" enable-background="new 0 0 264.085 67" xml:space="preserve">
<g>
	<g>
		<polygon fill="#EC894D" points="0,9.926 10.325,9.926 10.325,47.542 29.447,47.542 29.447,57.073 0,57.073 		"/>
		<g>
			<path fill="#EC894D" d="M34.009,25.109h9.926v31.949h-9.926V25.109z M38.973,9.227c3.179,0,5.757,2.58,5.757,5.76
				c0,3.178-2.578,5.75-5.757,5.75c-3.175,0-5.755-2.572-5.755-5.75C33.218,11.807,35.798,9.227,38.973,9.227"/>
		</g>
		<polygon fill="#EC894D" points="85.43,9.926 95.349,9.926 95.349,38.102 106.595,25.095 118.757,25.095 105.741,39.887 
			118.485,57.073 106.014,57.073 95.479,41.278 95.349,41.278 95.349,57.073 85.43,57.073 		"/>
		<path fill="#EC894D" d="M49.427,25.117h9.527v4.363h0.133c1.321-2.512,4.563-5.16,9.395-5.16c10.06,0,11.912,6.619,11.912,15.22
			v17.519h-9.926V41.525c0-3.705-0.068-8.468-5.165-8.468c-5.159,0-5.951,4.034-5.951,8.202v15.799h-9.925V25.117z"/>
		<path fill="#EC894D" d="M139.65,37.371c0.063-3.311-2.516-6.088-6.093-6.088c-4.365,0-6.746,2.979-7.011,6.088H139.65z
			 M148.056,51.527c-3.182,4.039-8.405,6.355-13.566,6.355c-9.926,0-17.867-6.617-17.867-16.877
			c0-10.253,7.941-16.872,17.867-16.872c9.268,0,15.084,6.619,15.084,16.872v3.109h-23.026c0.788,3.773,3.644,6.223,7.476,6.223
			c3.247,0,5.426-1.653,7.081-3.904L148.056,51.527z"/>
		<path fill="#EC894D" d="M170.252,32.835c-4.96,0-7.941,3.312-7.941,8.138c0,4.835,2.981,8.143,7.941,8.143
			c4.968,0,7.942-3.308,7.942-8.143C178.194,36.146,175.22,32.835,170.252,32.835 M187.331,57.055h-9.137v-4.238h-0.129
			c-1.529,2.318-5.363,5.031-9.861,5.031c-9.533,0-15.819-6.881-15.819-16.605c0-8.938,5.562-17.141,14.692-17.141
			c4.106,0,7.94,1.122,10.192,4.232h0.129V9.926h9.933V57.055z"/>
	</g>
	<path fill="#EC894D" d="M259.252,0h-57.058c-2.725,0-5.109,2.186-5.109,4.852v57.293c0,2.666,2.385,4.855,5.109,4.855h57.058
		c2.731,0,4.833-2.189,4.833-4.855V4.852C264.085,2.186,261.983,0,259.252,0z M217.085,57h-10V25h10V57z M212.148,20.759
		c-3.188,0-5.761-2.58-5.761-5.759s2.572-5.758,5.761-5.758c3.177,0,5.756,2.579,5.756,5.758S215.325,20.759,212.148,20.759z
		 M254.085,57h-10V41.536c0-3.705-0.007-8.472-5.104-8.472c-5.166,0-5.896,4.039-5.896,8.207V57h-10V25h10v4H233
		c1.324-2,4.454-4.915,9.286-4.915c10.053,0,11.799,6.861,11.799,15.466V57z"/>
</g>
</svg>
