<?xml version="1.0" encoding="utf-8"?>
<!-- Generator: Adobe Illustrator 16.0.4, SVG Export Plug-In . SVG Version: 6.00 Build 0)  -->
<!DOCTYPE svg PUBLIC "-//W3C//DTD SVG 1.1//EN" "http://www.w3.org/Graphics/SVG/1.1/DTD/svg11.dtd">
<svg version="1.1" id="Layer_1" xmlns="http://www.w3.org/2000/svg" xmlns:xlink="http://www.w3.org/1999/xlink" x="0px" y="0px"
	 width="122.504px" height="122.605px" viewBox="0 0 122.504 122.605" enable-background="new 0 0 122.504 122.605"
	 xml:space="preserve">
<path fill="#EC884B" d="M122.348,29.474c-0.006-2.079-0.055-4.151-0.393-6.214c-1.774-10.928-7.852-18.242-18.391-21.698
	c-4.494-1.475-9.213-1.513-13.883-1.525c-18.953-0.052-37.906-0.043-56.858,0c-3.281,0.006-6.566,0.162-9.834,0.611
	C12.276,2.121,3.809,9.743,1.18,20.222C0.196,24.13,0.088,28.109,0.052,32.08C-0.042,41.9,0.02,51.725,0.02,61.547
	c0,7.685,0.005,15.369,0,23.055c-0.004,3.924-0.067,7.855,0.234,11.774c0.324,4.288,1.142,8.463,3.294,12.257
	c5.254,9.244,13.497,13.316,23.847,13.798c4.099,0.192,8.193,0.161,12.292,0.161c16.404,0,32.813,0.045,49.222-0.035
	c3.336-0.019,6.68-0.081,10.02-0.504c11.248-1.406,19.933-9.057,22.539-20.054c0.812-3.438,1.041-6.967,1.037-10.48
	C122.483,70.835,122.411,50.154,122.348,29.474z M102.538,86.633c-1.537,0.679-3.15,1.276-4.795,1.375
	c-3.543,0.211-5.723,1.667-5.88,5.435c-0.05,1.083-0.684,1.109-1.555,0.938c-2.67-0.517-5.354-0.731-8.086-0.539
	c-2.503,0.176-4.716,1.021-6.769,2.377c-1.438,0.953-2.842,1.974-4.283,2.927c-6.504,4.278-13.047,4.333-19.613,0.147
	c-0.584-0.373-1.191-0.729-1.712-1.178c-5.056-4.368-10.899-5.223-17.195-3.73c-1.492,0.355-1.978-0.146-2.171-1.446
	c-0.077-0.513-0.261-1.006-0.324-1.52c-0.233-1.896-1.308-2.772-3.187-2.993c-2.638-0.311-5.222-0.926-7.627-2.116
	c-0.638-0.318-1.389-0.562-1.622-1.461c9.42-2.04,15.42-8.116,19.451-16.439c1.893-3.91,0.773-6.573-3.249-8.315
	c-1.793-0.777-3.784-1.066-5.447-2.154c-0.777-0.513-2.041-0.984-1.411-2.173c0.571-1.083,1.807-1.466,3.02-0.976
	c1.784,0.717,3.578,1.394,5.524,1.15c2.444-0.311,3.361-0.77,3.096-3.443c-0.391-3.955-0.526-7.928-0.4-11.919
	c0.261-8.07,4.314-13.726,11.155-17.472c8.26-4.524,21.792-3.793,29.19,4.107c4.409,4.71,5.933,10.276,5.668,16.515
	c-0.131,3.109-0.237,6.229-0.53,9.326c-0.17,1.845,0.801,2.463,2.297,2.779c1.905,0.406,3.682-0.128,5.379-0.876
	c1.029-0.454,1.982-0.517,2.98-0.074c1.465,0.652,1.6,1.582,0.354,2.578c-1.146,0.917-2.517,1.38-3.892,1.81
	c-1.491,0.461-2.958,0.979-4.233,1.9c-2.015,1.447-2.832,3.466-1.865,5.768c3.703,8.849,9.596,15.384,19.33,17.685
	c0.212,0.056,0.408,0.146,0.76,0.261C104.227,85.887,103.377,86.26,102.538,86.633z"/>
<path fill="#EC884B" d="M107.084,84.174c-0.287-1.227-1.258-1.456-2.328-1.708c-8.866-2.075-14.215-8.099-17.789-16.045
	c-0.655-1.47-0.135-2.759,1.26-3.55c0.895-0.513,1.874-0.881,2.84-1.245c1.456-0.551,2.953-0.979,4.297-1.8
	c1.969-1.198,2.895-2.784,2.508-4.326c-0.427-1.715-2.363-3.066-4.513-3.178c-0.942-0.049-1.823,0.108-2.688,0.508
	c-1.104,0.506-2.241,0.91-3.491,0.894c-0.769-0.013-1.142-0.215-1.062-1.126c0.18-2.012,0.225-4.032,0.328-6.051
	c0.027,0,0.055,0.002,0.081,0.002c0-1.791,0.005-3.582,0-5.373c-0.03-7.66-3.271-13.774-9.375-18.204
	c-7.567-5.49-16.14-6.209-24.773-3.47c-9.357,2.966-15.078,9.479-16.225,19.518c-0.49,4.326-0.062,8.651,0.243,12.966
	c0.113,1.578-0.467,1.89-1.825,1.762c-1.353-0.126-2.553-0.672-3.798-1.124c-2.099-0.759-4.89,0.283-5.852,2.15
	c-0.898,1.746-0.121,3.57,2.175,4.998c0.634,0.391,1.317,0.717,2.014,0.988c1.335,0.528,2.728,0.925,4.041,1.504
	c2.732,1.199,3.285,2.57,1.968,5.199c-3.807,7.604-9.164,13.395-17.955,15.124c-1.74,0.341-2.324,2.071-1.398,3.672
	c0.543,0.943,1.42,1.511,2.341,1.995c1.803,0.948,3.735,1.682,5.73,1.844c2.895,0.241,4.607,1.349,4.8,4.458
	c0.104,1.662,1.299,2.351,2.935,2.201c0.575-0.054,1.15-0.115,1.712-0.241c5.281-1.164,10.202-0.67,14.53,2.935
	c1.016,0.845,2.166,1.537,3.294,2.229c2.229,1.365,4.602,2.346,7.236,2.7c6.022,0.81,11.362-0.845,15.96-4.67
	c4.488-3.733,9.51-4.332,14.979-3.239c3.447,0.684,4.293,0.22,4.898-3.188c0.337-1.893,1.173-2.606,3.061-2.89
	c3.07-0.454,6.146-1.139,8.666-3.169C106.866,86.458,107.391,85.451,107.084,84.174z M102.538,86.633
	c-1.537,0.679-3.15,1.276-4.795,1.375c-3.543,0.211-5.723,1.667-5.88,5.435c-0.05,1.083-0.684,1.109-1.555,0.938
	c-2.67-0.517-5.354-0.731-8.086-0.539c-2.503,0.176-4.716,1.021-6.769,2.377c-1.438,0.953-2.842,1.974-4.283,2.927
	c-6.504,4.278-13.047,4.333-19.613,0.147c-0.584-0.373-1.191-0.729-1.712-1.178c-5.056-4.368-10.899-5.223-17.195-3.73
	c-1.492,0.355-1.978-0.146-2.171-1.446c-0.077-0.513-0.261-1.006-0.324-1.52c-0.233-1.896-1.308-2.772-3.187-2.993
	c-2.638-0.311-5.222-0.926-7.627-2.116c-0.638-0.318-1.389-0.562-1.622-1.461c9.42-2.04,15.42-8.116,19.451-16.439
	c1.893-3.91,0.773-6.573-3.249-8.315c-1.793-0.777-3.784-1.066-5.447-2.154c-0.777-0.513-2.041-0.984-1.411-2.173
	c0.571-1.083,1.807-1.466,3.02-0.976c1.784,0.717,3.578,1.394,5.524,1.15c2.444-0.311,3.361-0.77,3.096-3.443
	c-0.391-3.955-0.526-7.928-0.4-11.919c0.261-8.07,4.314-13.726,11.155-17.472c8.26-4.524,21.792-3.793,29.19,4.107
	c4.409,4.71,5.933,10.276,5.668,16.515c-0.131,3.109-0.237,6.229-0.53,9.326c-0.17,1.845,0.801,2.463,2.297,2.779
	c1.905,0.406,3.682-0.128,5.379-0.876c1.029-0.454,1.982-0.517,2.98-0.074c1.465,0.652,1.6,1.582,0.354,2.578
	c-1.146,0.917-2.517,1.38-3.892,1.81c-1.491,0.461-2.958,0.979-4.233,1.9c-2.015,1.447-2.832,3.466-1.865,5.768
	c3.703,8.849,9.596,15.384,19.33,17.685c0.212,0.056,0.408,0.146,0.76,0.261C104.227,85.887,103.377,86.26,102.538,86.633z"/>
<g>
	<path fill-rule="evenodd" clip-rule="evenodd" d="M99.381,110.302c0,1.088-0.99,2.072-2.08,2.072c-1.082,0-2.033-0.949-2.047-2.039
		c-0.012-1.121,0.93-2.092,2.037-2.096C98.389,108.238,99.381,109.215,99.381,110.302z"/>
	<path fill-rule="evenodd" clip-rule="evenodd" d="M27.523,110.289c0.003,1.1-0.972,2.084-2.067,2.086
		c-1.099,0.006-2.063-0.969-2.061-2.078c0.002-1.09,0.938-2.039,2.027-2.057C26.506,108.22,27.52,109.211,27.523,110.289z"/>
	<path fill-rule="evenodd" clip-rule="evenodd" d="M97.282,3.71c1.098-0.008,2.09,0.96,2.102,2.052
		c0.01,1.087-0.98,2.08-2.072,2.081c-1.1,0-2.041-0.923-2.062-2.025C95.227,4.705,96.176,3.719,97.282,3.71z"/>
	<path fill-rule="evenodd" clip-rule="evenodd" d="M92.825,116.824c0.012,1.125-0.926,2.07-2.057,2.072
		c-1.062,0.002-2.037-0.977-2.039-2.051c-0.006-1.107,0.902-2.062,1.988-2.092C91.875,114.722,92.813,115.644,92.825,116.824z"/>
	<path fill-rule="evenodd" clip-rule="evenodd" d="M66.702,116.818c0.01,1.066-0.951,2.057-2.021,2.076
		c-1.1,0.021-2.096-0.943-2.104-2.043c-0.01-1.125,0.924-2.084,2.043-2.098C65.717,114.74,66.69,115.705,66.702,116.818z"/>
	<path fill-rule="evenodd" clip-rule="evenodd" d="M36.47,5.809c-0.008-1.183,0.898-2.101,2.07-2.097
		c1.086,0.002,2.002,0.944,2.006,2.061c0.005,1.115-0.905,2.06-1.997,2.072C37.405,7.857,36.479,6.95,36.47,5.809z"/>
	<path fill-rule="evenodd" clip-rule="evenodd" d="M38.51,108.24c1.097,0,2.025,0.926,2.036,2.031
		c0.011,1.145-0.913,2.105-2.02,2.104c-1.143,0-2.05-0.91-2.057-2.062C36.464,109.16,37.366,108.244,38.51,108.24z"/>
	<path fill-rule="evenodd" clip-rule="evenodd" d="M92.825,38.406c0.012,1.17-0.91,2.114-2.066,2.111
		c-1.08-0.001-2.012-0.945-2.031-2.054c-0.018-1.082,0.924-2.06,2-2.078C91.87,36.365,92.815,37.275,92.825,38.406z"/>
	<path fill-rule="evenodd" clip-rule="evenodd" d="M66.708,5.777c0.008,1.077-0.947,2.049-2.027,2.066
		c-1.113,0.018-2.096-0.933-2.105-2.039c-0.012-1.115,0.936-2.083,2.051-2.096C65.723,3.696,66.7,4.666,66.708,5.777z"/>
	<path fill-rule="evenodd" clip-rule="evenodd" d="M97.344,16.809c1.148,0.022,2.055,0.949,2.037,2.081
		c-0.014,1.088-1.033,2.044-2.133,2.004c-1.125-0.041-2.039-1.01-1.998-2.126C95.288,17.653,96.213,16.787,97.344,16.809z"/>
	<path fill-rule="evenodd" clip-rule="evenodd" d="M31.999,40.517c-1.118,0.006-2.065-0.928-2.085-2.053
		c-0.02-1.11,0.928-2.069,2.054-2.079c1.11-0.011,2.069,0.957,2.057,2.074C34.011,39.563,33.078,40.511,31.999,40.517z"/>
	<path fill-rule="evenodd" clip-rule="evenodd" d="M60.171,5.778c0.002,1.125-0.942,2.068-2.067,2.065
		c-1.078-0.003-2.046-0.965-2.053-2.039c-0.007-1.107,0.963-2.094,2.054-2.092C59.24,3.713,60.168,4.64,60.171,5.778z"/>
	<path fill-rule="evenodd" clip-rule="evenodd" d="M25.434,118.896c-1.1-0.014-2.063-1.008-2.039-2.105
		c0.027-1.109,0.96-2.039,2.049-2.039c1.118,0,2.099,1.006,2.078,2.129C27.502,117.922,26.482,118.906,25.434,118.896z"/>
	<path fill-rule="evenodd" clip-rule="evenodd" d="M25.44,73.162c-1.136,0-2.045-0.922-2.044-2.072c0-1.096,0.932-2.014,2.044-2.018
		c1.126-0.002,2.09,0.943,2.082,2.045C27.514,72.236,26.568,73.164,25.44,73.162z"/>
	<path fill-rule="evenodd" clip-rule="evenodd" d="M75.676,116.855c-0.006-1.174,0.859-2.08,2.01-2.104
		c1.111-0.021,2.053,0.916,2.07,2.061c0.02,1.076-0.932,2.062-2.004,2.082C76.618,118.912,75.686,117.996,75.676,116.855z"/>
	<path fill-rule="evenodd" clip-rule="evenodd" d="M90.76,112.375c-1.098,0-2.043-0.977-2.031-2.104
		c0.014-1.086,0.971-2.035,2.049-2.029c1.135,0.006,2.066,0.951,2.053,2.072C92.815,111.455,91.891,112.375,90.76,112.375z"/>
	<path fill-rule="evenodd" clip-rule="evenodd" d="M99.381,116.836c0,1.047-0.994,2.047-2.047,2.059
		c-1.098,0.012-2.082-0.961-2.082-2.061c-0.002-1.125,0.951-2.088,2.059-2.082C98.409,114.758,99.381,115.738,99.381,116.836z"/>
	<path fill-rule="evenodd" clip-rule="evenodd" d="M108.329,38.424c0.008-1.148,0.926-2.055,2.07-2.042
		c1.094,0.012,2.012,0.955,2.006,2.062c-0.004,1.14-0.939,2.086-2.053,2.072C109.211,40.503,108.323,39.586,108.329,38.424z"/>
	<path fill-rule="evenodd" clip-rule="evenodd" d="M84.229,118.894c-1.076,0-2.027-0.959-2.033-2.051
		c-0.008-1.129,0.938-2.096,2.043-2.092c1.137,0.006,2.047,0.926,2.053,2.072C86.297,117.949,85.354,118.894,84.229,118.894z"/>
	<path fill-rule="evenodd" clip-rule="evenodd" d="M103.842,79.693c-1.115,0-2.082-0.955-2.08-2.057c0-1.1,0.967-2.068,2.068-2.074
		c1.104-0.006,2.047,0.963,2.037,2.09C105.858,78.76,104.932,79.693,103.842,79.693z"/>
	<path fill-rule="evenodd" clip-rule="evenodd" d="M75.676,110.302c0-1.154,0.908-2.07,2.049-2.062
		c1.086,0.01,2.025,0.953,2.031,2.045c0.01,1.135-0.926,2.09-2.041,2.09C76.577,112.375,75.676,111.461,75.676,110.302z"/>
	<path fill-rule="evenodd" clip-rule="evenodd" d="M99.383,25.37c-0.002,1.112-0.955,2.057-2.078,2.059
		c-1.129,0.002-2.057-0.93-2.053-2.063c0.002-1.102,0.922-2.02,2.033-2.031C98.407,23.323,99.383,24.27,99.383,25.37z"/>
	<path fill-rule="evenodd" clip-rule="evenodd" d="M29.912,116.857c-0.014-1.127,0.902-2.074,2.036-2.105
		c1.091-0.031,2.062,0.934,2.076,2.061c0.012,1.088-0.925,2.061-2.006,2.084C30.922,118.92,29.926,117.957,29.912,116.857z"/>
	<path fill-rule="evenodd" clip-rule="evenodd" d="M99.381,97.228c-0.004,1.111-0.959,2.057-2.076,2.059
		c-1.127,0.002-2.057-0.936-2.055-2.066c0.004-1.121,0.953-2.043,2.088-2.027C98.436,95.207,99.385,96.152,99.381,97.228z"/>
	<path fill-rule="evenodd" clip-rule="evenodd" d="M25.452,105.814c-1.147,0.004-2.048-0.895-2.059-2.055
		c-0.011-1.068,0.943-2.025,2.035-2.041c1.1-0.012,2.099,0.961,2.095,2.043C27.519,104.888,26.591,105.808,25.452,105.814z"/>
	<path fill-rule="evenodd" clip-rule="evenodd" d="M20.983,44.977c0.005,1.108-0.899,2.011-2.042,2.04
		c-1.081,0.029-2.056-0.923-2.065-2.018c-0.01-1.123,0.951-2.114,2.042-2.107C20.047,42.9,20.978,43.839,20.983,44.977z"/>
	<path fill-rule="evenodd" clip-rule="evenodd" d="M99.381,103.728c0.014,1.123-0.91,2.068-2.037,2.088
		c-1.148,0.016-2.072-0.875-2.092-2.021c-0.021-1.104,0.938-2.072,2.053-2.074C98.389,101.717,99.37,102.666,99.381,103.728z"/>
	<path fill-rule="evenodd" clip-rule="evenodd" d="M45.025,3.71c1.13-0.009,2.058,0.917,2.062,2.058
		c0.004,1.15-0.902,2.068-2.043,2.07c-1.093,0.001-2.021-0.916-2.051-2.025C42.962,4.697,43.908,3.719,45.025,3.71z"/>
	<path fill-rule="evenodd" clip-rule="evenodd" d="M99.383,45.006c-0.014,1.064-0.988,2.007-2.078,2.009
		c-1.121,0.001-2.076-0.962-2.053-2.072c0.023-1.119,1-2.079,2.088-2.052C98.43,42.92,99.395,43.918,99.383,45.006z"/>
	<path fill-rule="evenodd" clip-rule="evenodd" d="M112.407,45.003c-0.01,1.114-0.957,2.041-2.059,2.011
		c-1.164-0.032-2.02-0.898-2.02-2.04c0.004-1.166,0.906-2.081,2.049-2.082C111.489,42.89,112.415,43.85,112.407,45.003z"/>
	<path fill-rule="evenodd" clip-rule="evenodd" d="M88.731,25.302c0.037-1.111,0.977-1.995,2.092-1.966
		c1.166,0.03,2.039,0.944,2.004,2.097c-0.037,1.187-0.967,2.043-2.162,1.994C89.569,27.382,88.69,26.418,88.731,25.302z"/>
	<path fill-rule="evenodd" clip-rule="evenodd" d="M27.523,64.578c-0.006,1.102-0.98,2.066-2.083,2.062
		c-1.122-0.006-2.037-0.939-2.046-2.086c-0.008-1.09,0.928-2.012,2.044-2.014C26.578,62.539,27.53,63.469,27.523,64.578z"/>
	<path fill-rule="evenodd" clip-rule="evenodd" d="M97.321,62.543c1.117,0.008,2.057,0.922,2.061,2.01
		c0.006,1.102-0.957,2.076-2.057,2.088c-1.141,0.01-2.096-0.963-2.072-2.111C95.276,63.422,96.196,62.535,97.321,62.543z"/>
	<path fill-rule="evenodd" clip-rule="evenodd" d="M16.875,97.234c-0.008-1.104,0.909-2.033,2.016-2.041
		c1.157-0.01,2.079,0.881,2.096,2.021c0.017,1.133-0.893,2.055-2.047,2.072C17.815,99.306,16.885,98.381,16.875,97.234z"/>
	<path fill-rule="evenodd" clip-rule="evenodd" d="M31.978,7.843c-1.127-0.01-2.078-0.962-2.068-2.07
		c0.009-1.119,0.961-2.065,2.078-2.065c1.098,0.001,2.055,0.987,2.038,2.101C34.007,6.908,33.058,7.852,31.978,7.843z"/>
	<path fill-rule="evenodd" clip-rule="evenodd" d="M18.887,16.811c1.208-0.008,2.106,0.871,2.101,2.055
		c-0.006,1.105-0.908,2-2.043,2.027c-1.116,0.027-2.077-0.924-2.069-2.05C16.882,17.705,17.759,16.82,18.887,16.811z"/>
	<path fill-rule="evenodd" clip-rule="evenodd" d="M73.186,116.886c-0.02,1.113-0.959,2.033-2.049,2.01
		c-1.113-0.025-2.061-1.014-2.029-2.115c0.035-1.137,0.982-2.051,2.107-2.027C72.35,114.775,73.204,115.703,73.186,116.886z"/>
	<path fill-rule="evenodd" clip-rule="evenodd" d="M108.329,77.623c0.004-1.143,0.918-2.062,2.057-2.061
		c1.102,0.004,2.031,0.969,2.02,2.102c-0.01,1.105-0.941,2.033-2.037,2.027C109.221,79.685,108.327,78.781,108.329,77.623z"/>
	<path fill-rule="evenodd" clip-rule="evenodd" d="M51.56,14.332c-1.136,0-2.01-0.881-2.006-2.022
		c0.004-1.175,0.896-2.079,2.038-2.066c1.145,0.013,2.047,0.921,2.058,2.071C53.659,13.443,52.739,14.332,51.56,14.332z"/>
	<path fill-rule="evenodd" clip-rule="evenodd" d="M77.702,3.712c1.113-0.006,2.061,0.95,2.057,2.076
		c-0.004,1.104-0.926,2.042-2.023,2.057c-1.143,0.014-2.059-0.897-2.059-2.05C75.676,4.621,76.555,3.718,77.702,3.712z"/>
	<path fill-rule="evenodd" clip-rule="evenodd" d="M105.87,45.011c-0.02,1.118-0.979,2.046-2.07,2.003
		c-1.137-0.043-2.053-0.965-2.039-2.049c0.014-1.136,1.025-2.115,2.139-2.073C104.985,42.932,105.891,43.905,105.87,45.011z"/>
	<path fill-rule="evenodd" clip-rule="evenodd" d="M32.001,33.965c-1.182,0.004-2.099-0.909-2.09-2.08
		c0.009-1.092,0.938-2.007,2.052-2.023c1.108-0.017,2.076,0.957,2.058,2.067C34.002,33.075,33.123,33.96,32.001,33.965z"/>
	<path fill-rule="evenodd" clip-rule="evenodd" d="M73.188,12.334c-0.004,1.154-0.867,2.003-2.033,1.998
		c-1.139-0.007-2.053-0.903-2.047-2.015c0.002-1.148,0.914-2.064,2.062-2.074C72.317,10.233,73.188,11.138,73.188,12.334z"/>
	<path fill-rule="evenodd" clip-rule="evenodd" d="M103.838,27.429c-1.143-0.003-2.072-0.917-2.078-2.046
		c-0.008-1.114,0.936-2.045,2.074-2.048c1.135-0.004,2.062,0.938,2.039,2.071C105.848,26.536,104.948,27.432,103.838,27.429z"/>
	<path fill-rule="evenodd" clip-rule="evenodd" d="M32.002,27.429c-1.153,0.003-2.076-0.891-2.09-2.029
		c-0.015-1.153,0.927-2.077,2.105-2.067c1.104,0.009,2.012,0.939,2.004,2.055C34.015,26.51,33.108,27.426,32.002,27.429z"/>
	<path fill-rule="evenodd" clip-rule="evenodd" d="M18.894,75.562c1.125-0.002,2.068,0.922,2.086,2.049
		c0.019,1.117-0.912,2.066-2.042,2.082c-1.103,0.014-2.066-0.953-2.062-2.066C16.881,76.539,17.832,75.568,18.894,75.562z"/>
	<path fill-rule="evenodd" clip-rule="evenodd" d="M12.373,86.189c-1.12,0.002-2.039-0.904-2.034-2.01
		c0.004-1.158,0.908-2.076,2.043-2.076c1.15,0.002,2.041,0.895,2.049,2.059C14.439,85.316,13.554,86.185,12.373,86.189z"/>
	<path fill-rule="evenodd" clip-rule="evenodd" d="M118.934,77.701c-0.027,1.133-0.98,2.031-2.115,1.99
		c-1.082-0.037-2.016-1.037-1.973-2.105c0.047-1.139,0.998-2.047,2.111-2.021C118.079,75.594,118.961,76.547,118.934,77.701z"/>
	<path fill-rule="evenodd" clip-rule="evenodd" d="M14.431,97.23c-0.002,1.17-0.879,2.049-2.046,2.057
		c-1.131,0.008-2.055-0.926-2.046-2.068c0.008-1.119,0.915-2.023,2.032-2.023C13.54,95.191,14.433,96.074,14.431,97.23z"/>
	<path fill-rule="evenodd" clip-rule="evenodd" d="M5.873,42.891c1.106,0.01,2.051,0.995,2.031,2.116
		c-0.02,1.109-0.981,2.039-2.072,2.006c-1.166-0.035-2.013-0.898-2.006-2.046C3.831,43.802,4.741,42.881,5.873,42.891z"/>
	<path fill-rule="evenodd" clip-rule="evenodd" d="M103.772,14.33c-1.121-0.021-2.035-0.95-2.012-2.04
		c0.027-1.158,0.98-2.073,2.137-2.046c1.119,0.026,2.008,0.992,1.971,2.144C105.833,13.51,104.924,14.353,103.772,14.33z"/>
	<path fill-rule="evenodd" clip-rule="evenodd" d="M103.829,16.806c1.137-0.008,2.016,0.855,2.045,2.002
		c0.027,1.126-0.912,2.09-2.031,2.086c-1.137-0.002-2.088-0.935-2.084-2.047C101.76,17.704,102.663,16.815,103.829,16.806z"/>
	<path fill-rule="evenodd" clip-rule="evenodd" d="M110.329,73.162c-1.164-0.018-2.014-0.91-2-2.105
		c0.014-1.127,0.918-1.994,2.07-1.984c1.121,0.012,2.021,0.934,2.006,2.055C112.391,72.289,111.483,73.179,110.329,73.162z"/>
	<path fill-rule="evenodd" clip-rule="evenodd" d="M31.919,105.812c-1.165-0.037-2.037-0.957-2.006-2.117
		c0.028-1.092,0.997-2.002,2.107-1.977c1.108,0.027,2.041,0.996,2.001,2.08C33.978,104.984,33.074,105.849,31.919,105.812z"/>
	<path fill-rule="evenodd" clip-rule="evenodd" d="M116.838,86.189c-1.117-0.018-2.025-0.957-1.99-2.055
		c0.041-1.166,0.945-2.049,2.09-2.031c1.15,0.016,2.006,0.92,1.996,2.104C118.924,85.357,118.026,86.209,116.838,86.189z"/>
	<path fill-rule="evenodd" clip-rule="evenodd" d="M12.37,73.16c-1.131,0-2.04-0.928-2.034-2.076c0.005-1.104,0.93-2.012,2.047-2.01
		c1.163,0,2.058,0.896,2.047,2.049C14.419,72.291,13.539,73.162,12.37,73.16z"/>
	<path fill-rule="evenodd" clip-rule="evenodd" d="M108.329,18.815c0.01-1.181,0.879-2.02,2.076-2.006
		c1.164,0.013,2.02,0.904,2.002,2.088c-0.016,1.113-0.951,2.021-2.059,1.999C109.184,20.871,108.315,19.98,108.329,18.815z"/>
	<path fill-rule="evenodd" clip-rule="evenodd" d="M31.966,42.889c1.074-0.018,2.013,0.915,2.054,2.041
		c0.04,1.097-0.875,2.052-1.994,2.082c-1.138,0.029-2.108-0.898-2.114-2.02C29.906,43.869,30.844,42.909,31.966,42.889z"/>
	<path fill-rule="evenodd" clip-rule="evenodd" d="M110.385,14.332c-1.164,0.002-2.047-0.844-2.057-1.971
		c-0.01-1.216,0.85-2.109,2.037-2.117c1.133-0.007,2.039,0.912,2.039,2.07C112.407,13.438,111.516,14.33,110.385,14.332z"/>
	<path fill-rule="evenodd" clip-rule="evenodd" d="M118.934,44.949c0.014,1.146-0.852,2.038-1.996,2.06
		c-1.137,0.023-2.102-0.917-2.092-2.038c0.014-1.113,0.928-2.055,2.02-2.081C117.987,42.865,118.924,43.797,118.934,44.949z"/>
	<path fill-rule="evenodd" clip-rule="evenodd" d="M108.329,51.472c0.014-1.184,0.883-2.023,2.082-2.011
		c1.135,0.012,1.996,0.9,1.996,2.058c-0.002,1.123-0.914,2.027-2.041,2.021C109.194,53.535,108.319,52.645,108.329,51.472z"/>
	<path fill-rule="evenodd" clip-rule="evenodd" d="M12.349,16.809c1.192-0.012,2.068,0.832,2.082,2.005
		c0.013,1.159-0.865,2.061-2.027,2.082c-1.124,0.019-2.068-0.92-2.066-2.054C10.34,17.701,11.211,16.821,12.349,16.809z"/>
	<path fill-rule="evenodd" clip-rule="evenodd" d="M58.146,14.332c-1.129,0.007-2.078-0.884-2.09-1.966
		c-0.014-1.162,0.925-2.128,2.06-2.123c1.149,0.007,2.049,0.913,2.054,2.067C60.173,13.43,59.278,14.325,58.146,14.332z"/>
	<path fill-rule="evenodd" clip-rule="evenodd" d="M12.368,33.96c-1.149-0.002-2.04-0.912-2.029-2.074
		c0.011-1.096,0.956-2.032,2.046-2.024c1.127,0.008,2.038,0.905,2.046,2.015C14.44,33.085,13.572,33.96,12.368,33.96z"/>
	<path fill-rule="evenodd" clip-rule="evenodd" d="M47.081,103.756c0,1.191-0.855,2.053-2.041,2.055
		c-1.17,0-2.052-0.891-2.043-2.068c0.008-1.105,0.95-2.031,2.058-2.023C46.195,101.73,47.082,102.621,47.081,103.756z"/>
	<path fill-rule="evenodd" clip-rule="evenodd" d="M5.798,86.191c-1.145-0.018-1.997-0.906-1.972-2.062
		c0.025-1.186,0.908-2.047,2.079-2.025c1.108,0.02,1.999,0.947,1.996,2.08C7.899,85.312,6.962,86.207,5.798,86.191z"/>
	<path fill-rule="evenodd" clip-rule="evenodd" d="M14.431,77.627c0.004,1.135-0.916,2.062-2.05,2.066
		c-1.082,0.004-2.027-0.936-2.042-2.031c-0.017-1.113,0.937-2.1,2.032-2.1C13.5,75.562,14.427,76.492,14.431,77.627z"/>
	<path fill-rule="evenodd" clip-rule="evenodd" d="M116.868,73.162c-1.1-0.002-2.006-0.92-2.021-2.051
		c-0.018-1.098,0.918-2.033,2.035-2.037c1.174-0.002,2.068,0.889,2.057,2.049C118.92,72.306,118.049,73.168,116.868,73.162z"/>
	<path fill-rule="evenodd" clip-rule="evenodd" d="M90.731,14.332c-1.109-0.009-2.021-0.941-2-2.044
		c0.021-1.133,0.92-2.041,2.021-2.044c1.184-0.002,2.078,0.898,2.072,2.091C92.823,13.479,91.917,14.343,90.731,14.332z"/>
	<path fill-rule="evenodd" clip-rule="evenodd" d="M38.511,14.332c-1.184-0.006-2.052-0.873-2.042-2.041
		c0.011-1.174,0.887-2.047,2.056-2.048c1.13,0,2.026,0.925,2.021,2.087C40.542,13.456,39.645,14.338,38.511,14.332z"/>
	<path fill-rule="evenodd" clip-rule="evenodd" d="M84.237,14.332c-1.129,0.004-2.037-0.889-2.041-2.004
		c-0.006-1.157,0.902-2.085,2.037-2.083c1.17,0.003,2.045,0.876,2.057,2.052C86.301,13.453,85.418,14.328,84.237,14.332z"/>
	<path fill-rule="evenodd" clip-rule="evenodd" d="M118.934,31.891c0.004,1.187-0.846,2.058-2.02,2.068
		c-1.16,0.01-2.049-0.866-2.068-2.038c-0.02-1.106,0.943-2.067,2.064-2.06C118.036,29.87,118.93,30.767,118.934,31.891z"/>
	<path fill-rule="evenodd" clip-rule="evenodd" d="M110.321,86.189c-1.15-0.018-2.002-0.893-1.992-2.047
		c0.014-1.174,0.906-2.049,2.076-2.039c1.127,0.01,2.023,0.955,2,2.121C112.383,85.34,111.463,86.207,110.321,86.189z"/>
	<path fill-rule="evenodd" clip-rule="evenodd" d="M5.823,73.162c-1.167-0.01-2.008-0.896-1.995-2.102
		c0.012-1.139,0.905-2.002,2.056-1.988C7,69.084,7.917,70.015,7.902,71.121C7.888,72.267,6.966,73.172,5.823,73.162z"/>
	<path fill-rule="evenodd" clip-rule="evenodd" d="M3.826,25.365c-0.003-1.147,0.854-2.018,2.002-2.032
		c1.144-0.013,2.076,0.901,2.077,2.037c0,1.148-0.912,2.062-2.055,2.059C4.677,27.425,3.83,26.561,3.826,25.365z"/>
	<path fill-rule="evenodd" clip-rule="evenodd" d="M12.372,105.812c-1.15,0.002-2.043-0.906-2.034-2.066
		c0.008-1.104,0.946-2.033,2.042-2.027c1.133,0.008,2.04,0.896,2.051,2.008C14.442,104.935,13.579,105.808,12.372,105.812z"/>
	<path fill-rule="evenodd" clip-rule="evenodd" d="M116.934,49.462c1.172,0.013,2.01,0.887,2,2.081
		c-0.01,1.133-0.895,2.001-2.039,1.998c-1.125-0.003-2.043-0.905-2.049-2.012C114.836,50.346,115.745,49.449,116.934,49.462z"/>
	<path fill-rule="evenodd" clip-rule="evenodd" d="M84.213,16.809c1.221,0,2.088,0.862,2.076,2.065
		c-0.008,1.128-0.895,2.008-2.033,2.022c-1.131,0.013-2.07-0.927-2.059-2.06C82.208,17.69,83.084,16.81,84.213,16.809z"/>
	<path fill-rule="evenodd" clip-rule="evenodd" d="M103.827,105.816c-1.156-0.008-2.062-0.916-2.064-2.066
		c-0.002-1.107,0.979-2.051,2.109-2.031c1.088,0.021,2.002,0.949,1.998,2.027C105.866,104.924,104.981,105.822,103.827,105.816z"/>
</g>
</svg>
