<?xml version="1.0" encoding="utf-8"?>
<!-- Generator: Adobe Illustrator 16.0.4, SVG Export Plug-In . SVG Version: 6.00 Build 0)  -->
<!DOCTYPE svg PUBLIC "-//W3C//DTD SVG 1.1//EN" "http://www.w3.org/Graphics/SVG/1.1/DTD/svg11.dtd">
<svg version="1.1" id="Layer_1" xmlns="http://www.w3.org/2000/svg" xmlns:xlink="http://www.w3.org/1999/xlink" x="0px" y="0px"
	 width="144.749px" height="29.136px" viewBox="0 0 144.749 29.136" enable-background="new 0 0 144.749 29.136"
	 xml:space="preserve">
<g>
	<g>
		<path fill="#F08B46" d="M20.799,25.304c0,0.991-0.354,1.841-1.062,2.548c-0.707,0.708-1.557,1.062-2.546,1.062h-6.366
			c-2.972,0-5.52-1.055-7.642-3.163C1.062,23.643,0,21.102,0,18.131V3.741c0-0.99,0.36-1.839,1.083-2.547
			C1.804,0.487,2.659,0.133,3.65,0.133c0.99,0,1.84,0.354,2.547,1.061c0.707,0.708,1.061,1.557,1.061,2.547v3.608h9.844
			c0.99,0,1.839,0.354,2.546,1.062c0.708,0.708,1.062,1.555,1.062,2.546c0,0.991-0.354,1.84-1.062,2.547
			c-0.707,0.708-1.556,1.062-2.546,1.062H7.217v3.565c0,0.962,0.354,1.798,1.061,2.505s1.543,1.061,2.505,1.061h6.409
			c0.989,0,1.839,0.354,2.546,1.062C20.445,23.466,20.799,24.315,20.799,25.304z"/>
	</g>
	<g>
		<path fill="#F08B46" d="M83.846,25.304c0,0.991-0.354,1.841-1.061,2.548c-0.707,0.708-1.557,1.062-2.547,1.062h-2.657
			c-2.972,0-5.518-1.055-7.64-3.163c-2.123-2.107-3.185-4.648-3.185-7.62V3.741c0-0.99,0.361-1.839,1.083-2.547
			c0.722-0.707,1.578-1.061,2.568-1.061c0.989,0,1.838,0.354,2.546,1.061c0.708,0.708,1.062,1.557,1.062,2.547v6.546h6.27
			c0.99,0,1.84,0.354,2.548,1.061c0.707,0.708,1.06,1.556,1.06,2.547s-0.353,1.84-1.06,2.546c-0.708,0.708-1.558,1.062-2.548,1.062
			h-6.312v0.627c0,0.962,0.354,1.798,1.062,2.505c0.706,0.708,1.542,1.061,2.504,1.061h2.699c0.99,0,1.84,0.354,2.547,1.062
			S83.846,24.315,83.846,25.304z"/>
	</g>
	<g>
		<path fill="#F08B46" d="M102.876,25.304c0,0.991-0.354,1.841-1.061,2.548c-0.708,0.708-1.558,1.062-2.548,1.062h-2.656
			c-2.971,0-5.518-1.055-7.641-3.163c-2.122-2.107-3.184-4.648-3.184-7.62V3.741c0-0.99,0.361-1.839,1.082-2.547
			c0.722-0.707,1.578-1.061,2.568-1.061s1.84,0.354,2.547,1.061c0.708,0.708,1.061,1.557,1.061,2.547v6.546h6.271
			c0.99,0,1.84,0.354,2.547,1.061s1.062,1.556,1.062,2.547s-0.354,1.84-1.062,2.546c-0.707,0.708-1.557,1.062-2.547,1.062h-6.312
			v0.627c0,0.962,0.354,1.798,1.062,2.505s1.542,1.061,2.504,1.061h2.699c0.99,0,1.84,0.354,2.548,1.062
			C102.522,23.466,102.876,24.315,102.876,25.304z"/>
	</g>
	<g>
		<path fill="#F08B46" d="M64.838,3.631c0,0.998-0.356,1.852-1.068,2.563s-1.565,1.068-2.562,1.068
			c-0.998,0-1.858-0.356-2.586-1.068c-0.725-0.712-1.089-1.565-1.089-2.563c0-0.997,0.356-1.85,1.068-2.563
			C59.312,0.356,60.166,0,61.164,0c0.996,0,1.858,0.356,2.584,1.068C64.475,1.781,64.838,2.635,64.838,3.631z M64.838,25.375
			c0,0.998-0.356,1.853-1.068,2.563c-0.712,0.712-1.565,1.068-2.562,1.068c-0.998,0-1.858-0.356-2.586-1.068
			c-0.725-0.711-1.089-1.566-1.089-2.563v-11.79c0-0.997,0.356-1.852,1.068-2.563c0.711-0.711,1.565-1.068,2.563-1.068
			c0.996,0,1.858,0.356,2.584,1.068c0.727,0.711,1.09,1.566,1.09,2.563V25.375z"/>
		<path fill="#F08B46" d="M144.749,12.243c0,0.998-0.357,1.852-1.068,2.563c-0.713,0.712-1.567,1.068-2.562,1.068h-3.25
			c-0.969,0-1.809,0.348-2.521,1.047c-0.712,0.698-1.068,1.544-1.068,2.541v5.913c0,0.998-0.354,1.853-1.067,2.563
			c-0.712,0.712-1.566,1.068-2.563,1.068c-0.996,0-1.857-0.356-2.584-1.068c-0.727-0.711-1.09-1.566-1.09-2.563v-5.913
			c0-2.99,1.062-5.546,3.184-7.668c2.121-2.121,4.678-3.183,7.668-3.183h3.248c0.997,0,1.858,0.356,2.586,1.067
			C144.385,10.392,144.749,11.246,144.749,12.243z"/>
	</g>
	<path fill="#F08B46" d="M55.643,18.156c0,5.521-4.488,10.851-10.18,10.851c-2.733,0-4.469-0.925-6.549-2.776
		c-2.021,1.851-3.742,2.776-6.504,2.776c-5.685,0-10.181-5.381-10.181-10.851v-7.22c0-0.997,0.356-1.851,1.068-2.563
		c0.712-0.711,1.567-1.067,2.563-1.067s1.852,0.356,2.563,1.067c0.712,0.712,1.068,1.566,1.068,2.563v7.22
		c0,0.969,0.02,1.809,0.731,2.521c0.712,0.712,1.217,1.067,2.186,1.067c0.968,0,1.465-0.348,2.163-1.046
		c0.697-0.697,0.712-1.545,0.712-2.542V10.98c0-0.997,0.362-1.859,1.088-2.585c0.727-0.727,1.588-1.089,2.585-1.089
		s1.851,0.356,2.563,1.067c0.711,0.712,1.067,1.566,1.067,2.563v7.22c0,0.997,0.013,1.845,0.711,2.542
		c0.698,0.698,1.194,1.046,2.163,1.046c0.997,0,1.508-0.355,2.207-1.067c0.697-0.711,0.711-1.551,0.711-2.521v-7.22
		c0-0.997,0.355-1.851,1.067-2.563c0.711-0.711,1.566-1.067,2.563-1.067c0.996,0,1.852,0.356,2.562,1.067
		c0.712,0.712,1.068,1.566,1.068,2.563V18.156z"/>
	<g>
		<path fill="#F08B46" d="M114.726,7.526c0.056,0.002,0.111,0.004,0.166,0.007c4.063,0.212,8.151,2.667,9.882,6.434
			c0.602,1.307,0.901,2.682,0.901,4.123c0,0.782-0.292,1.472-0.879,2.073c-0.585,0.601-1.314,0.887-2.185,0.856
			c0,0-11.973,0-11.986,0c0.137,0.351,1.025,1.118,1.232,1.266c0.484,0.347,1.047,0.581,1.625,0.718
			c1.783,0.429,3.808,0.158,5.479-0.544c0.314-0.134,0.643-0.285,0.898-0.405c0.255-0.12,0.51-0.226,0.767-0.316
			c0.255-0.089,0.547-0.135,0.878-0.135c0.631,0.031,1.179,0.211,1.646,0.541c0.465,0.332,0.811,0.744,1.035,1.239
			c0.227,0.497,0.301,1.029,0.227,1.6c-0.076,0.571-0.351,1.002-0.801,1.483c-0.812,0.66-1.713,1.162-2.691,1.56
			c-3.174,1.289-7.154,1.591-10.34,0.181c-1.321-0.586-2.486-1.381-3.492-2.388c-1.007-1.006-1.802-2.186-2.389-3.538
			c-0.585-1.351-0.878-2.749-0.878-4.19c0-1.412,0.293-2.777,0.878-4.101C106.361,10.24,110.599,7.391,114.726,7.526z
			 M118.826,15.62c-0.512-0.63-1.112-1.134-1.803-1.509c-0.69-0.375-1.457-0.563-2.298-0.563c-0.872,0-1.645,0.188-2.321,0.563
			c-0.675,0.375-1.269,0.878-1.779,1.509H118.826z"/>
	</g>
</g>
</svg>
